﻿<?xml version="1.0" encoding="utf-8"?>
<!DOCTYPE svg PUBLIC "-//W3C//DTD SVG 1.0//EN" "http://www.w3.org/TR/2001/REC-SVG-20010904/DTD/svg10.dtd"[
	<!ENTITY ns_flows "http://ns.adobe.com/Flows/1.0/">
	<!ENTITY ns_svg "http://www.w3.org/2000/svg">
	<!ENTITY ns_xlink "http://www.w3.org/1999/xlink">
	<!ENTITY st0 "font-size:7px;font-family:'MS-PGothic';adobe-font-script:japanese;">
	<!ENTITY st1 "font-size:6px;font-family:'ArialMT';">
	<!-- White fill  -->
	<!ENTITY st2 "fill:#FFFFFF;stroke:#000000; stroke-width:1.41;stroke-linecap:round;stroke-linejoin:round;">
	<!-- Yellow fill  -->
	<!ENTITY st3 "fill:#FFFFCC;stroke:#FFFFCC; stroke-width:0.1;stroke-linecap:round;stroke-linejoin:round;">
	<!-- Gray fill  -->
	<!ENTITY st4 "fill:#CCCCCC;stroke:#CCCCCC; stroke-width:0.1;stroke-linecap:round;stroke-linejoin:round;">
	<!-- Light-blue fill -->
	<!ENTITY st5 "fill:#CCECF4;stroke:#000000; stroke-width:1.133;stroke-linecap:round;stroke-linejoin:round;">
	<!ENTITY st6 "fill:none;stroke-linecap:butt; stroke-linejoin:round;">
	<!ENTITY st7 "fill:none;stroke:#000000;stroke-linecap:round;stroke-linejoin:round;">
	<!ENTITY st8 "enable-background:new    ;">
	<!-- Black fill -->
	<!ENTITY st9 "fill:#000000;stroke:#000000; stroke-linecap:round;stroke-linejoin:round;">
	<!-- SRS note   -->
	<!ENTITY st10 "font-size:9px;font-family:'ArialMT';">
	<!ENTITY st11 "font-size:9px;font-family:'Svg Symbol';">
	<!ENTITY st12 "font-size:6px;font-family:'Svg Symbol';">
	<!ENTITY st13 "fill:none;stroke:#ff0000;stroke-linecap:round;stroke-linejoin:round;">
	<!-- Yellow fill  -->
	<!ENTITY st14 "fill:#FFFF00;stroke:#FFFF00; stroke-width:0.1;stroke-linecap:round;stroke-linejoin:round;">
	<!ENTITY st15 "font-size:6px;font-family:'MS-PGothic';adobe-font-script:japanese;">
	<!ENTITY st16 "1.00 0.00 0.00 1.00">
	<!ENTITY st17 "0.00 -1.00 1.00 0.00">
	<!ENTITY st18 "font-size:6px;font-family:'Arial';">
	<!ENTITY st19 "font-size:9px;font-family:'Arial';">
	<!ENTITY st20 "font-size:6px;font-family:'MS-PGothic','MS PGothic';adobe-font-script:japanese;">
	<!ENTITY st21 "font-size:7px;font-family:'MS-PGothic','MS PGothic';adobe-font-script:japanese;">
	<!ATTLIST svg
		xmlns:ewd CDATA #FIXED "http://shcl.co.jp/ewd"
		xmlns:a CDATA #FIXED "http://ns.adobe.com/AdobeSVGViewerExtensions/3.0/"
		ewd:ver CDATA #IMPLIED
	>
	<!ATTLIST a
		ewd:lineID CDATA #IMPLIED
		ewd:groupID CDATA #IMPLIED
		ewd:figtype CDATA #IMPLIED
		ewd:code CDATA #IMPLIED
		ewd:figID CDATA #IMPLIED
		ewd:pinNo CDATA #IMPLIED
		ewd:comment CDATA #IMPLIED >
	<!ATTLIST g
		ewd:lineID CDATA #IMPLIED
		ewd:groupID CDATA #IMPLIED
		ewd:figtype CDATA #IMPLIED
		ewd:code CDATA #IMPLIED
		ewd:figID CDATA #IMPLIED
		ewd:pinNo CDATA #IMPLIED
		ewd:comment CDATA #IMPLIED >
	<!ATTLIST text
		ewd:textID CDATA #IMPLIED >
	<!ATTLIST title
		ewd:textID CDATA #IMPLIED >
]>
<!-- Generator: Shintec Hozumi YS   -->
<svg onload="call_execInitLoadProc_svg('system')" style="overflow:visible;  enable-background:new 0 0 5667.136 710.000" viewBox="0 0 5667.136 710.000" height="710.000" width="5667.136" xml:space="preserve" ewd:ver="L2.1.2.8" xmlns="&ns_svg;" xmlns:a="http://ns.adobe.com/AdobeSVGViewerExtensions/3.0/" xmlns:ewd="http://shcl.co.jp/ewd" xmlns:xlink="&ns_xlink;">
<path d=" M 1521.25,  159.73  L 1516.27,  154.76 " style="stroke-width: 1.42 ;&st7; " /><path d=" M 1504.25,  166.79  L 1509.22,  171.76 " style="stroke-width: 1.42 ;&st7; " /><path d=" M 1516.27,  171.76  L 1521.25,  166.79 " style="stroke-width: 1.42 ;&st7; " /><path d=" M 1509.22,  154.76  L 1504.25,  159.73 " style="stroke-width: 1.42 ;&st7; " /><path d=" M 1682.72,  205.75  L 1691.22,  205.75 " style="stroke-width: 1.42 ;&st7; " /><path d=" M 1818.70,  452.21  L 1823.76,  440.85 " style="stroke-width: 1.42 ;&st7; " /><path d=" M 1818.70,  452.21  L 1813.64,  440.85 " style="stroke-width: 1.42 ;&st7; " /><path d=" M 1716.71,  452.21  L 1711.65,  440.85 " style="stroke-width: 1.42 ;&st7; " /><path d=" M 1716.71,  452.21  L 1721.77,  440.85 " style="stroke-width: 1.42 ;&st7; " /><path d=" M 1691.22,  435.21  L 1696.28,  446.58 " style="stroke-width: 1.42 ;&st7; " /><path d=" M 1691.22,  435.21  L 1686.16,  446.58 " style="stroke-width: 1.42 ;&st7; " /><path d=" M 1665.72,  452.21  L 1660.66,  440.85 " style="stroke-width: 1.42 ;&st7; " /><path d=" M 1665.72,  452.21  L 1670.78,  440.85 " style="stroke-width: 1.42 ;&st7; " /><path d=" M 1793.20,  435.21  L 1788.14,  446.58 " style="stroke-width: 1.42 ;&st7; " /><path d=" M 1767.70,  452.21  L 1762.65,  440.85 " style="stroke-width: 1.42 ;&st7; " /><path d=" M 1767.70,  452.21  L 1772.76,  440.85 " style="stroke-width: 1.42 ;&st7; " /><path d=" M 1742.21,  435.21  L 1747.27,  446.58 " style="stroke-width: 1.42 ;&st7; " /><path d=" M 1640.23,  435.21  L 1635.17,  446.58 " style="stroke-width: 1.42 ;&st7; " /><path d=" M 1742.21,  435.21  L 1737.15,  446.58 " style="stroke-width: 1.42 ;&st7; " /><path d=" M 1810.20,  239.75  L 1810.20,  222.75 " style="stroke-width: 1.42 ;&st7; " /><path d=" M 1810.20,  231.25  L 1818.70,  231.25 " style="stroke-width: 0.85 ;&st7; " /><path d=" M 1801.70,  222.75  L 1810.20,  228.41 " style="stroke-width: 0.85 ;&st7; " /><path d=" M 1640.23,  435.21  L 1645.29,  446.58 " style="stroke-width: 1.42 ;&st7; " /><path d=" M 1793.20,  435.21  L 1798.26,  446.58 " style="stroke-width: 1.42 ;&st7; " /><path d=" M 1835.69,  324.73  L 1844.19,  324.73 " style="stroke-width: 1.42 ;&st7; " /><path d=" M 1961.75,  710.00  L 1964.59,  710.00 " style="stroke-width: 0.85 ;&st7; " /><path d=" M 1960.34,  707.17  L 1966.00,  707.17 " style="stroke-width: 0.85 ;&st7; " /><path d=" M 1958.92,  704.33  L 1967.42,  704.33 " style="stroke-width: 0.85 ;&st7; " /><path d=" M 1954.67,  701.50  L 1971.67,  701.50 " style="stroke-width: 0.85 ;&st7; " /><path d=" M 1963.17,  697.25  L 1963.17,  701.50 " style="stroke-width: 0.85 ;&st7; " /><path d=" M 1686.97,  196.69  L 1691.22,  200.94  L 1695.47,  196.69 " style="stroke-width: 1.42 ;&st7; " /><path d=" M 1695.47,  200.09  L 1691.22,  204.33  L 1686.97,  200.09 " style="stroke-width: 1.42 ;&st7; " /><path d=" M 1691.22,  341.73  L 1691.22,  358.73 " style="stroke-width: 0.85 ;&st7; " /><path d=" M 1682.72,  341.73  L 1682.72,  358.73  L 1699.72,  358.73  L 1699.72,  341.73  L 1682.72,  341.73 " style="stroke-width: 1.42 ;&st7; " /><path d=" M 1691.22,  256.74  L 1691.22,  282.24 " style="stroke-width: 0.85 ;&st7; " /><path d=" M 1682.72,  273.74  L 1699.72,  273.74 " style="stroke-width: 1.13 ;&st7;stroke-dasharray:3, 1.5;" /><path d=" M 1682.72,  265.24  L 1699.72,  265.24 " style="stroke-width: 1.13 ;&st7;stroke-dasharray:3, 1.5;" /><path d=" M 1682.72,  256.74  L 1682.72,  282.24  L 1699.72,  282.24  L 1699.72,  256.74  L 1682.72,  256.74 " style="stroke-width: 1.42 ;&st7; " /><path d=" M 1822.94,  430.96  L 1818.70,  426.71  L 1731.58,  426.71  L 1729.46,  422.46  L 1727.34,  426.71  L 1640.23,  426.71  L 1635.98,  430.96 " style="stroke-width: 0.85 ;&st7; " /><path d=" M 1623.23,  486.20  L 1623.23,  520.20  L 1861.19,  520.20  L 1861.19,  486.20  L 1623.23,  486.20 " style="stroke-width: 1.42 ;&st7; " /><path d=" M 1801.70,  239.75  L 1810.20,  234.08 " style="stroke-width: 0.85 ;&st7; " /><path d=" M 1801.70,  239.75  L 1803.83,  236.56  L 1805.46,  239.00  L 1801.70,  239.75  L 1802.93,  238.92  L 1803.83,  237.58  L 1804.52,  238.61  L 1802.93,  238.92  L 1803.55,  238.51  L 1803.83,  238.09  L 1804.05,  238.41  L 1803.55,  238.51 " style="stroke-width: 0.85 ;&st7; " /><path d=" M 1801.70,  222.75  L 1776.20,  222.75  L 1776.20,  265.24 " style="stroke-width: 0.85 ;&st7; " /><path d=" M 1818.70,  231.25  L 1844.19,  231.25  L 1844.19,  265.24 " style="stroke-width: 0.85 ;&st7; " /><path d=" M 1801.70,  239.75  L 1801.70,  248.24 " style="stroke-width: 0.85 ;&st7; " /><path d=" M 1793.20,  248.24  L 1810.20,  248.24 " style="stroke-width: 0.85 ;&st7; " /><path d=" M 1797.45,  251.08  L 1805.95,  251.08 " style="stroke-width: 0.85 ;&st7; " /><path d=" M 1798.87,  253.91  L 1804.53,  253.91 " style="stroke-width: 0.85 ;&st7; " /><path d=" M 1800.28,  256.74  L 1803.11,  256.74 " style="stroke-width: 0.85 ;&st7; " /><path d=" M 1750.71,  205.75  L 1750.71,  265.24  L 1869.69,  265.24  L 1869.69,  205.75  L 1750.71,  205.75 " style="stroke-width: 1.42 ;&st7; " /><path d=" M 1839.94,  315.67  L 1844.19,  319.92  L 1848.44,  315.67 " style="stroke-width: 1.42 ;&st7; " /><path d=" M 1848.44,  319.07  L 1844.19,  323.31  L 1839.94,  319.07 " style="stroke-width: 1.42 ;&st7; " /><path d=" M 1517.28,  116.80  C 1517.28   114.30  1515.25   112.27  1512.75   112.27 " style="stroke-width: 1.42 ;&st7; " /><path d=" M 1512.75,  112.27  C 1510.24   112.27  1508.21   114.30  1508.21   116.80 " style="stroke-width: 1.42 ;&st7; " /><path d=" M 1508.21,  116.80  C 1508.21   119.30  1510.24   121.33  1512.75   121.33 " style="stroke-width: 1.42 ;&st7; " /><path d=" M 1512.75,  121.33  C 1515.25   121.33  1517.28   119.30  1517.28   116.80 " style="stroke-width: 1.42 ;&st7; " /><path d=" M 1517.28,  311.70  C 1517.28   309.20  1515.25   307.17  1512.75   307.17 " style="stroke-width: 1.42 ;&st7; " /><path d=" M 1512.75,  307.17  C 1510.24   307.17  1508.21   309.20  1508.21   311.70 " style="stroke-width: 1.42 ;&st7; " /><path d=" M 1508.21,  311.70  C 1508.21   314.20  1510.24   316.23  1512.75   316.23 " style="stroke-width: 1.42 ;&st7; " /><path d=" M 1512.75,  316.23  C 1515.25   316.23  1517.28   314.20  1517.28   311.70 " style="stroke-width: 1.42 ;&st7; " /><path d=" M 1517.28,  363.26  C 1517.28   360.75  1515.25   358.73  1512.75   358.73 " style="stroke-width: 1.42 ;&st7; " /><path d=" M 1512.75,  358.73  C 1510.24   358.73  1508.21   360.75  1508.21   363.26 " style="stroke-width: 1.42 ;&st7; " /><path d=" M 1508.21,  363.26  C 1508.21   365.76  1510.24   367.79  1512.75   367.79 " style="stroke-width: 1.42 ;&st7; " /><path d=" M 1512.75,  367.79  C 1515.25   367.79  1517.28   365.76  1517.28   363.26 " style="stroke-width: 1.42 ;&st7; " /><path d=" M 1967.70,  116.80  C 1967.70   114.30  1965.68   112.27  1963.17   112.27 " style="stroke-width: 1.42 ;&st7; " /><path d=" M 1963.17,  112.27  C 1960.67   112.27  1958.64   114.30  1958.64   116.80 " style="stroke-width: 1.42 ;&st7; " /><path d=" M 1958.64,  116.80  C 1958.64   119.30  1960.67   121.33  1963.17   121.33 " style="stroke-width: 1.42 ;&st7; " /><path d=" M 1963.17,  121.33  C 1965.68   121.33  1967.70   119.30  1967.70   116.80 " style="stroke-width: 1.42 ;&st7; " /><path d=" M 1695.75,  252.21  C 1695.75   249.71  1693.72   247.68  1691.22   247.68 " style="stroke-width: 1.42 ;&st7; " /><path d=" M 1691.22,  247.68  C 1688.71   247.68  1686.68   249.71  1686.68   252.21 " style="stroke-width: 1.42 ;&st7; " /><path d=" M 1686.68,  252.21  C 1686.68   254.71  1688.71   256.74  1691.22   256.74 " style="stroke-width: 1.42 ;&st7; " /><path d=" M 1691.22,  256.74  C 1693.72   256.74  1695.75   254.71  1695.75   252.21 " style="stroke-width: 1.42 ;&st7; " /><path d=" M 1695.75,  363.26  C 1695.75   360.75  1693.72   358.73  1691.22   358.73 " style="stroke-width: 1.42 ;&st7; " /><path d=" M 1691.22,  358.73  C 1688.71   358.73  1686.68   360.75  1686.68   363.26 " style="stroke-width: 1.42 ;&st7; " /><path d=" M 1686.68,  363.26  C 1686.68   365.76  1688.71   367.79  1691.22   367.79 " style="stroke-width: 1.42 ;&st7; " /><path d=" M 1691.22,  367.79  C 1693.72   367.79  1695.75   365.76  1695.75   363.26 " style="stroke-width: 1.42 ;&st7; " /><path d=" M 1695.75,  337.20  C 1695.75   334.69  1693.72   332.66  1691.22   332.66 " style="stroke-width: 1.42 ;&st7; " /><path d=" M 1691.22,  332.66  C 1688.71   332.66  1686.68   334.69  1686.68   337.20 " style="stroke-width: 1.42 ;&st7; " /><path d=" M 1686.68,  337.20  C 1686.68   339.70  1688.71   341.73  1691.22   341.73 " style="stroke-width: 1.42 ;&st7; " /><path d=" M 1691.22,  341.73  C 1693.72   341.73  1695.75   339.70  1695.75   337.20 " style="stroke-width: 1.42 ;&st7; " /><path d=" M 1695.75,  286.77  C 1695.75   284.27  1693.72   282.24  1691.22   282.24 " style="stroke-width: 1.42 ;&st7; " /><path d=" M 1691.22,  282.24  C 1688.71   282.24  1686.68   284.27  1686.68   286.77 " style="stroke-width: 1.42 ;&st7; " /><path d=" M 1686.68,  286.77  C 1686.68   289.27  1688.71   291.30  1691.22   291.30 " style="stroke-width: 1.42 ;&st7; " /><path d=" M 1691.22,  291.30  C 1693.72   291.30  1695.75   289.27  1695.75   286.77 " style="stroke-width: 1.42 ;&st7; " /><text style="&st18;" transform="matrix(&st16;  1526.39  159.56 )">W</text><text style="&st18;" transform="matrix(&st16;  1510.42  118.77 )">E</text><text style="&st18;" transform="matrix(&st16;  1505.61  108.57 )">SPD</text><text style="&st18;" transform="matrix(&st16;  1503.07  355.03 )">GND2</text><text style="&st18;" transform="matrix(&st17;  1509.05  423.02 )">BR</text><text style="&st18;" transform="matrix(&st16;  1501.87  365.23 )">6</text><text style="&st18;" transform="matrix(&st16;  1510.27  365.23 )">D</text><text style="&st18;" transform="matrix(&st16;  1505.61  323.87 )">SPD</text><text style="&st18;" transform="matrix(&st17;  1509.05  277.09 )">W</text><text style="&st18;" transform="matrix(&st17;  1509.05  141.12 )">W</text><text style="&st18;" transform="matrix(&st16;  1510.42  313.67 )">A</text><text style="&st18;" transform="matrix(&st16;  1731.38  380.52 )">V</text><text style="&st18;" transform="matrix(&st17;  1687.52  316.72 )">LG</text><text style="&st18;" transform="matrix(&st17;  1707.33  361.25 )">H77(A)</text><text ewd:textID="22" style="&st18;" transform="matrix(&st17;  1714.43  361.25 )">Junction <tspan dy="6" x="0">Connector</tspan></text><text style="&st18;" transform="matrix(&st17;  1707.33  284.76 )">H79(A),H80(B)</text><text ewd:textID="22" style="&st18;" transform="matrix(&st17;  1714.43  284.76 )">Junction <tspan dy="6" x="0">Connector</tspan></text><text style="&st18;" transform="matrix(&st16;  1677.16  365.23 )">16</text><text style="&st18;" transform="matrix(&st16;  1688.89  365.23 )">A</text><text style="&st18;" transform="matrix(&st16;  1677.16  339.16 )">18</text><text style="&st18;" transform="matrix(&st16;  1688.89  339.16 )">A</text><text style="&st18;" transform="matrix(&st16;  1680.34  288.74 )">2</text><text style="&st18;" transform="matrix(&st16;  1688.89  288.74 )">B</text><text style="&st18;" transform="matrix(&st16;  1677.94  254.18 )">11</text><text style="&st18;" transform="matrix(&st16;  1688.89  254.18 )">A</text><text style="&st18;" transform="matrix(&st16;  1637.7  527.81 )">A19</text><text style="&st18;" transform="matrix(&st17;  1713.02  463.46 )">G</text><text style="&st18;" transform="matrix(&st17;  1662.03  465.44 )">LG</text><text style="&st18;" transform="matrix(&st17;  1764.01  463.04 )">P</text><text style="&st18;" transform="matrix(&st17;  1636.53  463.04 )">V</text><text style="&st18;" transform="matrix(&st17;  1687.52  465.37 )">BE</text><text style="&st18;" transform="matrix(&st17;  1789.5  463.04 )">B</text><text style="&st18;" transform="matrix(&st17;  1815.0  464.06 )">W</text><text style="&st18;" transform="matrix(&st17;  1738.51  462.69 )">L</text><text style="&st18;" transform="matrix(&st16;  1811.74  493.84 )">RR-</text><text style="&st18;" transform="matrix(&st16;  1786.24  493.84 )">RR+</text><text style="&st18;" transform="matrix(&st16;  1761.24  493.84 )">RL-</text><text style="&st18;" transform="matrix(&st16;  1735.74  493.84 )">RL+</text><text style="&st18;" transform="matrix(&st16;  1710.11  493.84 )">FR-</text><text style="&st18;" transform="matrix(&st16;  1684.61  493.84 )">FR+</text><text style="&st18;" transform="matrix(&st16;  1659.61  493.84 )">FL-</text><text style="&st18;" transform="matrix(&st16;  1634.12  493.84 )">FL+</text><text ewd:textID="42" style="&st18;" transform="matrix(&st16;  1705.05  419.05 )">Speed Sensors</text><text style="&st18;" transform="matrix(&st16;  1629.48  482.51 )">45</text><text style="&st18;" transform="matrix(&st16;  1654.98  482.51 )">46</text><text style="&st18;" transform="matrix(&st16;  1680.47  482.51 )">34</text><text style="&st18;" transform="matrix(&st16;  1705.97  482.51 )">33</text><text style="&st18;" transform="matrix(&st16;  1731.46  482.51 )">36</text><text style="&st18;" transform="matrix(&st16;  1756.96  482.51 )">37</text><text style="&st18;" transform="matrix(&st16;  1782.46  482.51 )">43</text><text style="&st18;" transform="matrix(&st16;  1807.95  482.51 )">42</text><text ewd:textID="6" style="&st18;" transform="matrix(&st16;  1637.7  534.92 )">ABS and Traction Actuator Assembly</text><text style="&st18;" transform="matrix(&st16;  1765.46  273.43 )">35</text><text style="&st18;" transform="matrix(&st16;  1833.45  273.43 )">36</text><text style="&st18;" transform="matrix(&st16;  1847.02  261.55 )">SI</text><text style="&st18;" transform="matrix(&st16;  1779.04  261.55 )">+S</text><text style="&st18;" transform="matrix(&st16;  1773.68  194.95 )">H37</text><text ewd:textID="9" style="&st18;" transform="matrix(&st16;  1773.68  202.05 )">Combination Meter Assembly</text><text style="&st18;" transform="matrix(&st17;  1840.5  308.71 )">GR</text><text style="&st18;" transform="matrix(&st16;  1826.2  330.95 )">19</text><text style="&st18;" transform="matrix(&st17;  1840.5  378.05 )">Y</text><text style="&st18;" transform="matrix(&st16;  1837.94  493.84 )">SP1</text><text style="&st18;" transform="matrix(&st16;  1572.96  23.58 )">L(*1)</text><text style="&st18;" transform="matrix(&st16;  1569.72  40.58 )">GR(*1)</text><text style="&st18;" transform="matrix(&st16;  1518.72  40.58 )">GR(*1)</text><text style="&st18;" transform="matrix(&st16;  1521.97  23.58 )">L(*1)</text><text style="&st18;" transform="matrix(&st16;  1577.38  159.56 )">W</text><text style="&st18;" transform="matrix(&st16;  1705.69  84.47 )">I25(A),I26(B),I27(C),I50(D),I53(E),I54(F),e1(G),f1(H),f3(I)</text><text ewd:textID="25" style="&st18;" transform="matrix(&st16;  1705.69  91.57 )">Navigation Receiver Assembly</text><text style="&st18;" transform="matrix(&st16;  1960.84  118.77 )">B</text><text style="&st18;" transform="matrix(&st16;  1952.3  118.77 )">7</text><text style="&st18;" transform="matrix(&st17;  1687.52  234.6 )">W</text><text style="&st18;" transform="matrix(&st17;  1959.48  264.44 )">W-B</text><text style="&st18;" transform="matrix(&st16;  1953.88  108.57 )">GND1</text><text style="&st18;" transform="matrix(&st16;  1676.4  211.97 )">2</text><text style="&st18;" transform="matrix(&st16;  1837.4  482.51 )">3</text></svg>