﻿<?xml version="1.0" encoding="utf-8"?>
<!DOCTYPE svg PUBLIC "-//W3C//DTD SVG 1.0//EN" "http://www.w3.org/TR/2001/REC-SVG-20010904/DTD/svg10.dtd"[
	<!ENTITY ns_flows "http://ns.adobe.com/Flows/1.0/">
	<!ENTITY ns_svg "http://www.w3.org/2000/svg">
	<!ENTITY ns_xlink "http://www.w3.org/1999/xlink">
	<!ENTITY st0 "font-size:7px;font-family:'MS-PGothic';adobe-font-script:japanese;">
	<!ENTITY st1 "font-size:6px;font-family:'ArialMT';">
	<!-- White fill  -->
	<!ENTITY st2 "fill:#FFFFFF;stroke:#000000; stroke-width:1.41;stroke-linecap:round;stroke-linejoin:round;">
	<!-- Yellow fill  -->
	<!ENTITY st3 "fill:#FFFFCC;stroke:#FFFFCC; stroke-width:0.1;stroke-linecap:round;stroke-linejoin:round;">
	<!-- Gray fill  -->
	<!ENTITY st4 "fill:#CCCCCC;stroke:#CCCCCC; stroke-width:0.1;stroke-linecap:round;stroke-linejoin:round;">
	<!-- Light-blue fill -->
	<!ENTITY st5 "fill:#CCECF4;stroke:#000000; stroke-width:1.133;stroke-linecap:round;stroke-linejoin:round;">
	<!ENTITY st6 "fill:none;stroke-linecap:butt; stroke-linejoin:round;">
	<!ENTITY st7 "fill:none;stroke:#000000;stroke-linecap:round;stroke-linejoin:round;">
	<!ENTITY st8 "enable-background:new    ;">
	<!-- Black fill -->
	<!ENTITY st9 "fill:#000000;stroke:#000000; stroke-linecap:round;stroke-linejoin:round;">
	<!-- SRS note   -->
	<!ENTITY st10 "font-size:9px;font-family:'ArialMT';">
	<!ENTITY st11 "font-size:9px;font-family:'Svg Symbol';">
	<!ENTITY st12 "font-size:6px;font-family:'Svg Symbol';">
	<!ENTITY st13 "fill:none;stroke:#ff0000;stroke-linecap:round;stroke-linejoin:round;">
	<!-- Yellow fill  -->
	<!ENTITY st14 "fill:#FFFF00;stroke:#FFFF00; stroke-width:0.1;stroke-linecap:round;stroke-linejoin:round;">
	<!ENTITY st15 "font-size:6px;font-family:'MS-PGothic';adobe-font-script:japanese;">
	<!ENTITY st16 "1.00 0.00 0.00 1.00">
	<!ENTITY st17 "0.00 -1.00 1.00 0.00">
	<!ENTITY st18 "font-size:6px;font-family:'Arial';">
	<!ENTITY st19 "font-size:9px;font-family:'Arial';">
	<!ENTITY st20 "font-size:6px;font-family:'MS-PGothic','MS PGothic';adobe-font-script:japanese;">
	<!ENTITY st21 "font-size:7px;font-family:'MS-PGothic','MS PGothic';adobe-font-script:japanese;">
	<!ATTLIST svg
		xmlns:ewd CDATA #FIXED "http://shcl.co.jp/ewd"
		xmlns:a CDATA #FIXED "http://ns.adobe.com/AdobeSVGViewerExtensions/3.0/"
		ewd:ver CDATA #IMPLIED
	>
	<!ATTLIST a
		ewd:lineID CDATA #IMPLIED
		ewd:groupID CDATA #IMPLIED
		ewd:figtype CDATA #IMPLIED
		ewd:code CDATA #IMPLIED
		ewd:figID CDATA #IMPLIED
		ewd:pinNo CDATA #IMPLIED
		ewd:comment CDATA #IMPLIED >
	<!ATTLIST g
		ewd:lineID CDATA #IMPLIED
		ewd:groupID CDATA #IMPLIED
		ewd:figtype CDATA #IMPLIED
		ewd:code CDATA #IMPLIED
		ewd:figID CDATA #IMPLIED
		ewd:pinNo CDATA #IMPLIED
		ewd:comment CDATA #IMPLIED >
	<!ATTLIST text
		ewd:textID CDATA #IMPLIED >
	<!ATTLIST title
		ewd:textID CDATA #IMPLIED >
]>
<!-- Generator: Shintec Hozumi YS   -->
<svg onload="call_execInitLoadProc_svg('system')" style="overflow:visible;  enable-background:new 0 0 2026.990 710.000" viewBox="0 0 2026.990 710.000" height="710.000" width="2026.990" xml:space="preserve" ewd:ver="L2.1.2.8" xmlns="&ns_svg;" xmlns:a="http://ns.adobe.com/AdobeSVGViewerExtensions/3.0/" xmlns:ewd="http://shcl.co.jp/ewd" xmlns:xlink="&ns_xlink;"><script type="text/javascript" xlink:href="../../../../../system/js/ewd/fig/svgfig.js" xmlns:xlink="http://www.w3.org/1999/xlink" /><defs><font horiz-adv-x="1229"><font-face font-family="Svg Symbol" units-per-em="2048" panose-1="5 5 1 2 1 7 6 2 5 7" ascent="2059" descent="450" alphabetic="0" /><missing-glyph d="M 103,0 l 0,1280 1024,0 0,-1280 -1024,0 z m 32,32 l 960,0 0,1216 -960,0 0,-1216 z" /><glyph unicode="" horiz-adv-x="1573" d="M 1517,0 l -567,0 24,279 q 141,59 207.5,168 66.5,109 66.5,306    0,272 -132.5,417.5 -132.5,145.5 -333.5,145.5 -194,0 -328,-147.5 -134,-147.5 -134,-401.5 0,-200 68.5,-319 68.5,-119     206.5,-169 l 25,-279 -564,0 0,279 35,0 q 3,-61 32,-83 45,-35 137,-35 l 270,0 0,70 q -210,61 -324.5,209 -114.5,148     -114.5,349 0,252 186.5,425 186.5,173 504.5,173 195,0 358.5,-73.5 163.5,-73.5 252,-214.5 88.5,-141 88.5,-310 0,-207     -121.5,-360.5 -121.5,-153.5 -317.5,-197.5 l -8,-70 275,0 q 92,0 128,28 36,28 42,90 l 38,0 0,-279 z" /></font></defs>
<g id="ewd_top"><a ewd:code="O40" ewd:figID="1" ewd:figtype="conn" style="cursor:pointer;"><path d=" M  348.44,  605.18  L  365.44,  605.18  L  365.44,  622.18  L  348.44,  622.18  L  348.44,  605.18 " style="&st5;" /><title ewd:textID="11">Junction Connector</title></a><a ewd:code="H85" ewd:figID="2" ewd:figtype="conn" style="cursor:pointer;"><path d=" M  943.34,  392.72  L 1002.83,  392.72  L 1002.83,  409.72  L  943.34,  409.72  L  943.34,  392.72 " style="&st5;" /><title ewd:textID="11">Junction Connector</title></a><a ewd:code="FUSE7" ewd:figID="3" ewd:figtype="rb" style="cursor:pointer;"><path d=" M   55.24,   78.27  L   55.24,   35.78  L   29.75,   35.78  L   29.75,   78.27  L   55.24,   78.27 " style="&st5;" /></a><a ewd:code="V2,V3" ewd:figID="4" ewd:figtype="conn" style="cursor:pointer;"><path d=" M   17.00,  273.74  L  373.94,  273.74  L  373.94,  316.23  L   17.00,  316.23  L   17.00,  273.74 " style="&st5;" /><title ewd:textID="6">Back Door ECU</title></a><a ewd:code="H2,H4" ewd:figID="5" ewd:figtype="conn" style="cursor:pointer;"><path d=" M 1308.78,   35.78  L  739.38,   35.78  L  739.38,   69.77  L 1308.78,   69.77  L 1308.78,   35.78 " style="&st5;" /><title ewd:textID="12">Main Body ECU</title></a><a ewd:code="A19" ewd:figID="6" ewd:figtype="conn" style="cursor:pointer;"><path d=" M 1104.82,  571.19  L 1104.82,  528.70  L 1359.77,  528.70  L 1359.77,  571.19  L 1104.82,  571.19 " style="&st5;" /><title ewd:textID="5">ABS and Traction Actuator Assembly</title></a><a ewd:code="V6" ewd:figID="7" ewd:figtype="conn" style="cursor:pointer;"><path d=" M   50.99,  486.20  L   50.99,  452.21  L   33.99,  452.21  L   33.99,  486.20  L   50.99,  486.20 " style="&st5;" /><title ewd:textID="7">Back Door Opener Switch Assembly</title></a><a ewd:code="H119" ewd:figID="8" ewd:figtype="conn" style="cursor:pointer;"><path d=" M 1113.31,  137.76  L 1113.31,  171.76  L 1300.28,  171.76  L 1300.28,  137.76  L 1113.31,  137.76 " style="&st5;" /><title ewd:textID="11">Junction Connector</title></a><a ewd:code="H37" ewd:figID="9" ewd:figtype="conn" style="cursor:pointer;"><path d=" M 1682.72,  188.75  L 1682.72,  375.72  L 2005.66,  375.72  L 2005.66,  188.75  L 1682.72,  188.75 " style="&st5;" /><title ewd:textID="9">Combination Meter Assembly</title></a><a ewd:code="V19" ewd:figID="10" ewd:figtype="conn" style="cursor:pointer;"><path d=" M  127.48,  605.18  L  127.48,  622.18  L  297.45,  622.18  L  297.45,  605.18  L  127.48,  605.18 " style="&st5;" /><title ewd:textID="11">Junction Connector</title></a><a ewd:code="O41" ewd:figID="11" ewd:figtype="conn" style="cursor:pointer;"><path d=" M 1351.27,  316.23  L 1351.27,  333.23  L 1402.27,  333.23  L 1402.27,  316.23  L 1351.27,  316.23 " style="&st5;" /><title ewd:textID="11">Junction Connector</title></a><a ewd:code="FUSE7" ewd:figID="12" ewd:figtype="rb" style="cursor:pointer;"><path d=" M  548.16,   35.78  L  548.16,   78.27  L  573.65,   78.27  L  573.65,   35.78  L  548.16,   35.78 " style="&st5;" /></a><a ewd:code="H85" ewd:figID="13" ewd:figtype="conn" style="cursor:pointer;"><path d=" M 1929.18,  537.20  L 1988.67,  537.20  L 1988.67,  554.19  L 1929.18,  554.19  L 1929.18,  537.20 " style="&st5;" /><title ewd:textID="11">Junction Connector</title></a><a ewd:code="H88" ewd:figID="14" ewd:figtype="conn" style="cursor:pointer;"><path d=" M  229.46,  197.25  L  229.46,  214.25  L  246.46,  214.25  L  246.46,  197.25  L  229.46,  197.25 " style="&st5;" /><title ewd:textID="11">Junction Connector</title></a><a ewd:code="FUSE3" ewd:figID="15" ewd:figtype="rb" style="cursor:pointer;"><path d=" M 1788.95,   27.28  L 1788.95,   69.77  L 1814.45,   69.77  L 1814.45,   27.28  L 1788.95,   27.28 " style="&st5;" /></a><a ewd:code="FUSE9" ewd:figID="16" ewd:figtype="rb" style="cursor:pointer;"><path d=" M 1848.44,   27.28  L 1848.44,   69.77  L 1873.94,   69.77  L 1873.94,   27.28  L 1848.44,   27.28 " style="&st5;" /></a><a ewd:code="H88,H89" ewd:figID="17" ewd:figtype="conn" style="cursor:pointer;"><path d=" M  169.97,  146.26  L  169.97,  171.76  L  186.97,  171.76  L  186.97,  146.26  L  169.97,  146.26 " style="&st5;" /><title ewd:textID="11">Junction Connector</title></a><a ewd:code="V5" ewd:figID="18" ewd:figtype="conn" style="cursor:pointer;"><path d=" M  161.47,  426.71  L  161.47,  494.70  L  288.95,  494.70  L  288.95,  426.71  L  161.47,  426.71 " style="&st5;" /><title ewd:textID="15">With Motor Back Door Lock Assembly</title></a><a ewd:code="DJB" ewd:figID="19" ewd:figtype="jb" style="cursor:pointer;"><path d=" M   25.50,  129.26  L   25.50,  180.26  L   50.99,  180.26  L   50.99,  129.26  L   25.50,  129.26 " style="&st4;" /></a><a ewd:code="DJB" ewd:figID="20" ewd:figtype="jb" style="cursor:pointer;"><path d=" M  339.94,   35.78  L  339.94,  103.77  L  399.43,  103.77  L  399.43,   35.78  L  339.94,   35.78 " style="&st4;" /></a><a ewd:code="DJB" ewd:figID="21" ewd:figtype="jb" style="cursor:pointer;"><path d=" M  161.47,   35.78  L  161.47,  103.77  L  220.96,  103.77  L  220.96,   35.78  L  161.47,   35.78 " style="&st4;" /></a><a ewd:code="DJB" ewd:figID="22" ewd:figtype="jb" style="cursor:pointer;"><path d=" M  594.90,   35.78  L  594.90,  154.76  L  858.36,  154.76  L  858.36,  112.27  L  960.34,  112.27  L  960.34,   69.77  L  739.38,   69.77  L  739.38,   35.78  L  594.90,   35.78 " style="&st4;" /></a><a ewd:code="FUSE7" ewd:figID="23" ewd:figtype="fuse" style="cursor:pointer;"><path d=" M  548.16,   35.78  L  548.16,   78.27  L  573.65,   78.27  L  573.65,   35.78  L  548.16,   35.78 " style="&st7;" /></a><a ewd:code="FUSE54" ewd:figID="24" ewd:figtype="fuse" style="cursor:pointer;"><path d=" M  599.15,   35.78  L  599.15,   78.27  L  624.65,   78.27  L  624.65,   35.78  L  599.15,   35.78 " style="&st7;" /></a><a ewd:code="FUSE7" ewd:figID="25" ewd:figtype="fuse" style="cursor:pointer;"><path d=" M   55.24,   78.27  L   55.24,   35.78  L   29.75,   35.78  L   29.75,   78.27  L   55.24,   78.27 " style="&st7;" /></a><a ewd:code="FUSE81" ewd:figID="26" ewd:figtype="fuse" style="cursor:pointer;"><path d=" M  344.19,   35.78  L  344.19,   78.27  L  369.69,   78.27  L  369.69,   35.78  L  344.19,   35.78 " style="&st7;" /></a><a ewd:code="FUSE9" ewd:figID="27" ewd:figtype="fuse" style="cursor:pointer;"><path d=" M 1848.44,   27.28  L 1848.44,   69.77  L 1873.94,   69.77  L 1873.94,   27.28  L 1848.44,   27.28 " style="&st7;" /></a><a ewd:code="FUSE57" ewd:figID="28" ewd:figtype="fuse" style="cursor:pointer;"><path d=" M  641.64,   35.78  L  641.64,   78.27  L  667.14,   78.27  L  667.14,   35.78  L  641.64,   35.78 " style="&st7;" /></a><a ewd:code="FUSE3" ewd:figID="29" ewd:figtype="fuse" style="cursor:pointer;"><path d=" M 1788.95,   27.28  L 1788.95,   69.77  L 1814.45,   69.77  L 1814.45,   27.28  L 1788.95,   27.28 " style="&st7;" /></a><a ewd:code="FUSE57" ewd:figID="30" ewd:figtype="fuse" style="cursor:pointer;"><path d=" M  191.22,   78.27  L  191.22,   35.78  L  165.72,   35.78  L  165.72,   78.27  L  191.22,   78.27 " style="&st7;" /></a><a ewd:code="FUSE76" ewd:figID="31" ewd:figtype="fuse" style="cursor:pointer;"><path d=" M  692.63,   35.78  L  692.63,   78.27  L  718.13,   78.27  L  718.13,   35.78  L  692.63,   35.78 " style="&st7;" /></a><a ewd:lineID="1" style="cursor:pointer;"><path d=" M   76.49,  325.30  L   76.49,  503.20  L   42.49,  503.20  L   42.49,  486.20 " style="stroke:#000000;stroke-width: 5.10 ;&st6;" /></a><a ewd:lineID="2" style="cursor:pointer;"><path d=" M   42.49,  325.30  L   42.49,  452.21 " style="stroke:#000000;stroke-width: 5.10 ;&st6;" /><path d=" M   42.49,  325.30  L   42.49,  452.21 " style="stroke:#FFFFFF;stroke-width: 4.53 ;&st6;" /></a><a ewd:lineID="3" style="cursor:pointer;"><path d=" M   42.49,  180.26  L   42.49,  239.75  L   84.99,  239.75  L   84.99,  228.98 " style="stroke:#FF0000;stroke-width: 5.10 ;&st6;" /></a><a ewd:lineID="4" style="cursor:pointer;"><path d=" M   42.49,  103.77  L   42.49,  129.26 " style="stroke:#999999;stroke-width: 5.10 ;&st6;" /></a><a ewd:lineID="5" style="cursor:pointer;"><path d=" M  135.98,  163.26  L  135.98,  129.26  L   84.99,  129.26  L   84.99,  214.25 " style="stroke:#FF0000;stroke-width: 5.10 ;&st6;" /></a><a ewd:lineID="6" style="cursor:pointer;"><path d=" M  135.98,  325.30  L  135.98,  596.12 " style="stroke:#000000;stroke-width: 5.10 ;&st6;" /><path d=" M  135.98,  325.30  L  135.98,  596.12 " style="stroke:#FFFFFF;stroke-width: 4.53 ;&st6;" /><path d=" M  135.98,  325.30  L  135.98,  596.12 " style="stroke:#000000;stroke-width: 1.13 ;&st6;" /></a><a ewd:lineID="7" style="cursor:pointer;"><path d=" M  135.98,  222.75  L  135.98,  264.67 " style="stroke:#999999;stroke-width: 5.10 ;&st6;" /></a><a ewd:lineID="8" style="cursor:pointer;"><path d=" M  135.98,  177.99  L  135.98,  208.02 " style="stroke:#FF0000;stroke-width: 5.10 ;&st6;" /></a><a ewd:lineID="9" style="cursor:pointer;"><path d=" M  178.47,  180.82  L  178.47,  256.74  L  237.96,  256.74  L  237.96,  223.31 " style="stroke:#992903;stroke-width: 5.10 ;&st6;" /></a><a ewd:lineID="10" style="cursor:pointer;"><path d=" M  178.47,  103.77  L  178.47,  137.20 " style="stroke:#F668B2;stroke-width: 5.10 ;&st6;" /></a><a ewd:lineID="11" style="cursor:pointer;"><path d=" M  186.97,  325.30  L  186.97,  426.71 " style="stroke:#F668B2;stroke-width: 5.10 ;&st6;" /></a><a ewd:lineID="12" style="cursor:pointer;"><path d=" M  229.46,  325.30  L  229.46,  426.71 " style="stroke:#FF0000;stroke-width: 5.10 ;&st6;" /></a><a ewd:lineID="13" style="cursor:pointer;"><path d=" M  237.96,  152.78  L  237.96,  188.19 " style="stroke:#000000;stroke-width: 5.10 ;&st6;" /><path d=" M  237.96,  152.78  L  237.96,  188.19 " style="stroke:#FFFFFF;stroke-width: 4.53 ;&st6;" /></a><a ewd:lineID="14" style="cursor:pointer;"><path d=" M  305.95,  163.26  L  305.95,   95.27  L  237.96,   95.27  L  237.96,  137.76 " style="stroke:#008837;stroke-width: 5.10 ;&st6;" /></a><a ewd:lineID="15" style="cursor:pointer;"><path d=" M  263.46,  494.70  L  263.46,  596.12 " style="stroke:#000000;stroke-width: 5.10 ;&st6;" /><path d=" M  263.46,  494.70  L  263.46,  596.12 " style="stroke:#FFFFFF;stroke-width: 4.53 ;&st6;" /><path d=" M  263.46,  494.70  L  263.46,  596.12 " style="stroke:#000000;stroke-width: 1.13 ;&st6;" /></a><a ewd:lineID="16" style="cursor:pointer;"><path d=" M  263.46,  426.71  L  263.46,  375.72 " style="stroke:#000000;stroke-width: 5.10 ;&st6;" /></a><a ewd:lineID="17" style="cursor:pointer;"><path d=" M 1079.32,  180.26  L 1079.32,  664.67  L  416.43,  664.67  L  416.43,  333.23  L  263.46,  333.23  L  263.46,  360.99 " style="stroke:#000000;stroke-width: 5.10 ;&st6;" /></a><a ewd:lineID="18" style="cursor:pointer;"><path d=" M  356.94,  537.20  L  356.94,  511.70  L  288.95,  511.70  L  288.95,  596.12 " style="stroke:#000000;stroke-width: 5.10 ;&st6;" /><path d=" M  356.94,  537.20  L  356.94,  511.70  L  288.95,  511.70  L  288.95,  596.12 " style="stroke:#FFFFFF;stroke-width: 4.53 ;&st6;" /><path d=" M  356.94,  537.20  L  356.94,  511.70  L  288.95,  511.70  L  288.95,  596.12 " style="stroke:#000000;stroke-width: 1.13 ;&st6;" /></a><a ewd:lineID="19" style="cursor:pointer;"><path d=" M  305.95,  222.75  L  305.95,  264.67 " style="stroke:#FFE600;stroke-width: 5.10 ;&st6;" /></a><a ewd:lineID="20" style="cursor:pointer;"><path d=" M  305.95,  177.99  L  305.95,  208.02 " style="stroke:#008837;stroke-width: 5.10 ;&st6;" /></a><a ewd:lineID="21" style="cursor:pointer;"><path d=" M  356.94,  622.18  L  356.94,  681.67 " style="stroke:#000000;stroke-width: 5.10 ;&st6;" /><path d=" M  356.94,  622.18  L  356.94,  681.67 " style="stroke:#FFFFFF;stroke-width: 4.53 ;&st6;" /><path d=" M  356.94,  622.18  L  356.94,  681.67 " style="stroke:#000000;stroke-width: 1.13 ;&st6;" /></a><a ewd:lineID="22" style="cursor:pointer;"><path d=" M  356.94,  605.18  L  356.94,  551.93 " style="stroke:#000000;stroke-width: 5.10 ;&st6;" /><path d=" M  356.94,  605.18  L  356.94,  551.93 " style="stroke:#FFFFFF;stroke-width: 4.53 ;&st6;" /><path d=" M  356.94,  605.18  L  356.94,  551.93 " style="stroke:#000000;stroke-width: 1.13 ;&st6;" /></a><a ewd:lineID="23" style="cursor:pointer;"><path d=" M  356.94,  171.76  L  356.94,  264.67 " style="stroke:#99D9E8;stroke-width: 5.10 ;&st6;" /></a><a ewd:lineID="24" style="cursor:pointer;"><path d=" M  356.94,  103.77  L  356.94,  157.03 " style="stroke:#56077D;stroke-width: 5.10 ;&st6;" /></a><a ewd:lineID="25" style="cursor:pointer;"><path d=" M  560.91,  112.27  L  560.91,  214.25  L  883.85,  214.25  L  883.85,  112.27 " style="stroke:#999999;stroke-width: 5.10 ;&st6;" /></a><a ewd:lineID="26" style="cursor:pointer;"><path d=" M  951.84,  409.72  L  951.84,  681.67 " style="stroke:#000000;stroke-width: 5.10 ;&st6;" /><path d=" M  951.84,  409.72  L  951.84,  681.67 " style="stroke:#FFFFFF;stroke-width: 4.53 ;&st6;" /><path d=" M  951.84,  409.72  L  951.84,  681.67 " style="stroke:#000000;stroke-width: 1.13 ;&st6;" /></a><a ewd:lineID="27" style="cursor:pointer;"><path d=" M  951.84,  112.27  L  951.84,  392.72 " style="stroke:#000000;stroke-width: 5.10 ;&st6;" /><path d=" M  951.84,  112.27  L  951.84,  392.72 " style="stroke:#FFFFFF;stroke-width: 4.53 ;&st6;" /><path d=" M  951.84,  112.27  L  951.84,  392.72 " style="stroke:#000000;stroke-width: 1.13 ;&st6;" /></a><a ewd:lineID="28" style="cursor:pointer;"><path d=" M  994.33,  409.72  L  994.33,  681.67 " style="stroke:#000000;stroke-width: 5.10 ;&st6;" /><path d=" M  994.33,  409.72  L  994.33,  681.67 " style="stroke:#FFFFFF;stroke-width: 4.53 ;&st6;" /><path d=" M  994.33,  409.72  L  994.33,  681.67 " style="stroke:#000000;stroke-width: 1.13 ;&st6;" /></a><a ewd:lineID="29" style="cursor:pointer;"><path d=" M 1079.32,  165.52  L 1079.32,   78.84 " style="stroke:#C3AF96;stroke-width: 5.10 ;&st6;" /></a><a ewd:lineID="30" style="cursor:pointer;"><path d=" M 1121.81,  571.19  L 1121.81,  630.68 " style="stroke:#56077D;stroke-width: 5.10 ;&st6;" /></a><a ewd:lineID="31" style="cursor:pointer;"><path d=" M 1121.81,  324.73  L 1121.81,  528.70 " style="stroke:#000000;stroke-width: 5.10 ;&st6;" /></a><a ewd:lineID="32" style="cursor:pointer;"><path d=" M 1121.81,  171.76  L 1121.81,  310.00 " style="stroke:#000000;stroke-width: 5.10 ;&st6;" /></a><a ewd:lineID="33" style="cursor:pointer;"><path d=" M 1147.31,  571.19  L 1147.31,  630.68 " style="stroke:#7FC97F;stroke-width: 5.10 ;&st6;" /></a><a ewd:lineID="34" style="cursor:pointer;"><path d=" M 1155.81,  528.70  L 1155.81,  324.73 " style="stroke:#000000;stroke-width: 5.10 ;&st6;" /><path d=" M 1155.81,  528.70  L 1155.81,  324.73 " style="stroke:#FFFFFF;stroke-width: 4.53 ;&st6;" /></a><a ewd:lineID="35" style="cursor:pointer;"><path d=" M 1155.81,  171.76  L 1155.81,  309.72 " style="stroke:#000000;stroke-width: 5.10 ;&st6;" /><path d=" M 1155.81,  171.76  L 1155.81,  309.72 " style="stroke:#FFFFFF;stroke-width: 4.53 ;&st6;" /></a><a ewd:lineID="36" style="cursor:pointer;"><path d=" M 1172.80,  571.19  L 1172.80,  630.68 " style="stroke:#C3AF96;stroke-width: 5.10 ;&st6;" /></a><a ewd:lineID="37" style="cursor:pointer;"><path d=" M 1198.30,  571.19  L 1198.30,  630.68 " style="stroke:#008837;stroke-width: 5.10 ;&st6;" /></a><a ewd:lineID="38" style="cursor:pointer;"><path d=" M 1223.80,  571.19  L 1223.80,  630.68 " style="stroke:#00A0C6;stroke-width: 5.10 ;&st6;" /></a><a ewd:lineID="39" style="cursor:pointer;"><path d=" M 1240.79,  449.94  L 1240.79,  486.20  L 1767.70,  486.20  L 1767.70,  375.72 " style="stroke:#99D9E8;stroke-width: 5.10 ;&st6;" /></a><a ewd:lineID="40" style="cursor:pointer;"><path d=" M 1240.79,  435.21  L 1240.79,  222.75 " style="stroke:#99D9E8;stroke-width: 5.10 ;&st6;" /></a><a ewd:lineID="41" style="cursor:pointer;"><path d=" M 1240.79,  435.21  L 1240.79,  426.71  L 1257.79,  409.72  L 1257.79,  392.72  L 1359.77,  392.72  L 1359.77,  342.29 " style="stroke:#99D9E8;stroke-width: 5.10 ;&st6;" /></a><a ewd:lineID="42" style="cursor:pointer;"><path d=" M 1240.79,  222.75  L 1240.79,  231.25  L 1257.79,  248.24  L 1257.79,  265.24  L 1359.77,  265.24  L 1359.77,  307.17 " style="stroke:#00A0C6;stroke-width: 5.10 ;&st6;" /></a><a ewd:lineID="43" style="cursor:pointer;"><path d=" M 1240.79,  208.02  L 1240.79,  171.76 " style="stroke:#99D9E8;stroke-width: 5.10 ;&st6;" /></a><a ewd:lineID="44" style="cursor:pointer;"><path d=" M 1240.79,   78.84  L 1240.79,  137.76 " style="stroke:#00A0C6;stroke-width: 5.10 ;&st6;" /></a><a ewd:lineID="45" style="cursor:pointer;"><path d=" M 1249.29,  571.19  L 1249.29,  630.68 " style="stroke:#F668B2;stroke-width: 5.10 ;&st6;" /></a><a ewd:lineID="46" style="cursor:pointer;"><path d=" M 1274.79,  571.19  L 1274.79,  630.68 " style="stroke:#000000;stroke-width: 5.10 ;&st6;" /></a><a ewd:lineID="47" style="cursor:pointer;"><path d=" M 1291.78,  450.23  L 1291.78,  469.21  L 1725.21,  469.21  L 1725.21,  375.72 " style="stroke:#000000;stroke-width: 5.10 ;&st6;" /><path d=" M 1291.78,  450.23  L 1291.78,  469.21  L 1725.21,  469.21  L 1725.21,  375.72 " style="stroke:#FFFFFF;stroke-width: 4.53 ;&st6;" /></a><a ewd:lineID="48" style="cursor:pointer;"><path d=" M 1291.78,  435.21  L 1291.78,  222.75 " style="stroke:#000000;stroke-width: 5.10 ;&st6;" /><path d=" M 1291.78,  435.21  L 1291.78,  222.75 " style="stroke:#FFFFFF;stroke-width: 4.53 ;&st6;" /></a><a ewd:lineID="49" style="cursor:pointer;"><path d=" M 1291.78,  435.21  L 1291.78,  426.71  L 1308.78,  409.72  L 1393.77,  409.72  L 1393.77,  342.29 " style="stroke:#000000;stroke-width: 5.10 ;&st6;" /><path d=" M 1291.78,  435.21  L 1291.78,  426.71  L 1308.78,  409.72  L 1393.77,  409.72  L 1393.77,  342.29 " style="stroke:#FFFFFF;stroke-width: 4.53 ;&st6;" /></a><a ewd:lineID="50" style="cursor:pointer;"><path d=" M 1291.78,  222.75  L 1291.78,  231.25  L 1308.78,  248.24  L 1393.77,  248.24  L 1393.77,  307.17 " style="stroke:#000000;stroke-width: 5.10 ;&st6;" /><path d=" M 1291.78,  222.75  L 1291.78,  231.25  L 1308.78,  248.24  L 1393.77,  248.24  L 1393.77,  307.17 " style="stroke:#FFFFFF;stroke-width: 4.53 ;&st6;" /></a><a ewd:lineID="51" style="cursor:pointer;"><path d=" M 1291.78,  207.73  L 1291.78,  171.76 " style="stroke:#000000;stroke-width: 5.10 ;&st6;" /><path d=" M 1291.78,  207.73  L 1291.78,  171.76 " style="stroke:#FFFFFF;stroke-width: 4.53 ;&st6;" /></a><a ewd:lineID="52" style="cursor:pointer;"><path d=" M 1291.78,   78.84  L 1291.78,  137.76 " style="stroke:#000000;stroke-width: 5.10 ;&st6;" /><path d=" M 1291.78,   78.84  L 1291.78,  137.76 " style="stroke:#FFFFFF;stroke-width: 4.53 ;&st6;" /></a><a ewd:lineID="53" style="cursor:pointer;"><path d=" M 1300.28,  571.19  L 1300.28,  630.68 " style="stroke:#000000;stroke-width: 5.10 ;&st6;" /><path d=" M 1300.28,  571.19  L 1300.28,  630.68 " style="stroke:#FFFFFF;stroke-width: 4.53 ;&st6;" /></a><a ewd:lineID="54" style="cursor:pointer;"><path d=" M 1342.78,  636.91  L 1342.78,  681.67  L 1810.20,  681.67  L 1810.20,  375.72 " style="stroke:#999999;stroke-width: 5.10 ;&st6;" /></a><a ewd:lineID="55" style="cursor:pointer;"><path d=" M 1342.78,  571.19  L 1342.78,  622.18 " style="stroke:#FFE600;stroke-width: 5.10 ;&st6;" /></a><a ewd:lineID="56" style="cursor:pointer;"><path d=" M 1801.70,  188.75  L 1801.70,  143.99 " style="stroke:#7FC97F;stroke-width: 5.10 ;&st6;" /></a><a ewd:lineID="57" style="cursor:pointer;"><path d=" M 1801.70,  129.26  L 1801.70,   95.27 " style="stroke:#008837;stroke-width: 5.10 ;&st6;" /></a><a ewd:lineID="58" style="cursor:pointer;"><path d=" M 1861.19,  188.75  L 1861.19,  143.99 " style="stroke:#F668B2;stroke-width: 5.10 ;&st6;" /></a><a ewd:lineID="59" style="cursor:pointer;"><path d=" M 1861.19,  129.26  L 1861.19,   95.27 " style="stroke:#C3AF96;stroke-width: 5.10 ;&st6;" /></a><a ewd:lineID="60" style="cursor:pointer;"><path d=" M 1937.68,  681.67  L 1937.68,  554.19 " style="stroke:#000000;stroke-width: 5.10 ;&st6;" /><path d=" M 1937.68,  681.67  L 1937.68,  554.19 " style="stroke:#FFFFFF;stroke-width: 4.53 ;&st6;" /><path d=" M 1937.68,  681.67  L 1937.68,  554.19 " style="stroke:#000000;stroke-width: 1.13 ;&st6;" /></a><a ewd:lineID="61" style="cursor:pointer;"><path d=" M 1980.17,  681.67  L 1980.17,  554.19 " style="stroke:#000000;stroke-width: 5.10 ;&st6;" /><path d=" M 1980.17,  681.67  L 1980.17,  554.19 " style="stroke:#FFFFFF;stroke-width: 4.53 ;&st6;" /><path d=" M 1980.17,  681.67  L 1980.17,  554.19 " style="stroke:#000000;stroke-width: 1.13 ;&st6;" /></a><a ewd:lineID="62" style="cursor:pointer;"><path d=" M 1980.17,  537.20  L 1980.17,  375.72 " style="stroke:#000000;stroke-width: 5.10 ;&st6;" /><path d=" M 1980.17,  537.20  L 1980.17,  375.72 " style="stroke:#FFFFFF;stroke-width: 4.53 ;&st6;" /><path d=" M 1980.17,  537.20  L 1980.17,  375.72 " style="stroke:#000000;stroke-width: 1.13 ;&st6;" /></a><a ewd:code="VO3" ewd:figID="32" ewd:figtype="w2w" ewd:pinNo="7" style="cursor:pointer;"><path d=" M  314.45,  214.25  L  297.45,  214.25  L  297.45,  222.75  L  314.45,  222.75  L  314.45,  214.25 " style="&st2;" /><text style="&st8;" transform="matrix(&st16;  298.51  220.99 )"><tspan style="&st18;" x="0" y="0">VO3</tspan></text></a><a ewd:code="OO2" ewd:figID="33" ewd:figtype="w2w" ewd:pinNo="7" style="cursor:pointer;"><path d=" M  314.45,  163.26  L  297.45,  163.26  L  297.45,  171.76  L  314.45,  171.76  L  314.45,  163.26 " style="&st2;" /><text style="&st8;" transform="matrix(&st16;  298.07  170.0 )"><tspan style="&st18;" x="0" y="0">OO2</tspan></text></a><a ewd:code="AH10" ewd:figID="34" ewd:figtype="w2w" ewd:pinNo="14" style="cursor:pointer;"><path d=" M 1164.31,  316.23  L 1147.31,  316.23  L 1147.31,  324.73  L 1164.31,  324.73  L 1164.31,  316.23 " style="&st2;" /><text style="&st8;" transform="matrix(&st16;  1146.99  322.98 )"><tspan style="&st18;" x="0" y="0">AH10</tspan></text></a><a ewd:code="AH10" ewd:figID="35" ewd:figtype="w2w" ewd:pinNo="3" style="cursor:pointer;"><path d=" M 1130.31,  316.23  L 1113.31,  316.23  L 1113.31,  324.73  L 1130.31,  324.73  L 1130.31,  316.23 " style="&st2;" /><text style="&st8;" transform="matrix(&st16;  1113.0  322.98 )"><tspan style="&st18;" x="0" y="0">AH10</tspan></text></a><a ewd:code="OH1" ewd:figID="36" ewd:figtype="w2w" ewd:pinNo="6" style="cursor:pointer;"><path d=" M  246.46,  137.76  L  229.46,  137.76  L  229.46,  146.26  L  246.46,  146.26  L  246.46,  137.76 " style="&st2;" /><text style="&st8;" transform="matrix(&st16;  230.78  144.51 )"><tspan style="&st18;" x="0" y="0">OH1</tspan></text></a><a ewd:code="OH3" ewd:figID="37" ewd:figtype="w2w" ewd:pinNo="16" style="cursor:pointer;"><path d=" M 1249.29,  435.21  L 1232.29,  435.21  L 1232.29,  443.71  L 1249.29,  443.71  L 1249.29,  435.21 " style="&st2;" /><text style="&st8;" transform="matrix(&st16;  1233.21  441.96 )"><tspan style="&st18;" x="0" y="0">OH3</tspan></text></a><a ewd:code="VO3" ewd:figID="38" ewd:figtype="w2w" ewd:pinNo="5" style="cursor:pointer;"><path d=" M  144.48,  214.25  L  127.48,  214.25  L  127.48,  222.75  L  144.48,  222.75  L  144.48,  214.25 " style="&st2;" /><text style="&st8;" transform="matrix(&st16;  128.54  220.99 )"><tspan style="&st18;" x="0" y="0">VO3</tspan></text></a><a ewd:code="OO2" ewd:figID="39" ewd:figtype="w2w" ewd:pinNo="8" style="cursor:pointer;"><path d=" M  144.48,  163.26  L  127.48,  163.26  L  127.48,  171.76  L  144.48,  171.76  L  144.48,  163.26 " style="&st2;" /><text style="&st8;" transform="matrix(&st16;  128.09  170.0 )"><tspan style="&st18;" x="0" y="0">OO2</tspan></text></a><a ewd:code="VO2" ewd:figID="40" ewd:figtype="w2w" ewd:pinNo="7" style="cursor:pointer;"><path d=" M  365.44,  163.26  L  348.44,  163.26  L  348.44,  171.76  L  365.44,  171.76  L  365.44,  163.26 " style="&st2;" /><text style="&st8;" transform="matrix(&st16;  349.5  170.0 )"><tspan style="&st18;" x="0" y="0">VO2</tspan></text></a><a ewd:code="VO2" ewd:figID="41" ewd:figtype="w2w" ewd:pinNo="6" style="cursor:pointer;"><path d=" M  271.95,  367.22  L  254.96,  367.22  L  254.96,  375.72  L  271.95,  375.72  L  271.95,  367.22 " style="&st2;" /><text style="&st8;" transform="matrix(&st16;  256.02  373.97 )"><tspan style="&st18;" x="0" y="0">VO2</tspan></text></a><a ewd:code="OH3" ewd:figID="42" ewd:figtype="w2w" ewd:pinNo="9" style="cursor:pointer;"><path d=" M 1087.82,  171.76  L 1070.82,  171.76  L 1070.82,  180.26  L 1087.82,  180.26  L 1087.82,  171.76 " style="&st2;" /><text style="&st8;" transform="matrix(&st16;  1071.73  178.5 )"><tspan style="&st18;" x="0" y="0">OH3</tspan></text></a><a ewd:code="VO2" ewd:figID="43" ewd:figtype="w2w" ewd:pinNo="1" style="cursor:pointer;"><path d=" M  365.44,  537.20  L  348.44,  537.20  L  348.44,  545.69  L  365.44,  545.69  L  365.44,  537.20 " style="&st2;" /><text style="&st8;" transform="matrix(&st16;  349.5  543.94 )"><tspan style="&st18;" x="0" y="0">VO2</tspan></text></a><a ewd:code="AH9" ewd:figID="44" ewd:figtype="w2w" ewd:pinNo="15" style="cursor:pointer;"><path d=" M 1869.69,  129.26  L 1852.69,  129.26  L 1852.69,  137.76  L 1869.69,  137.76  L 1869.69,  129.26 " style="&st2;" /><text style="&st8;" transform="matrix(&st16;  1854.05  136.01 )"><tspan style="&st18;" x="0" y="0">AH9</tspan></text></a><a ewd:code="AH9" ewd:figID="45" ewd:figtype="w2w" ewd:pinNo="9" style="cursor:pointer;"><path d=" M 1810.20,  129.26  L 1793.20,  129.26  L 1793.20,  137.76  L 1810.20,  137.76  L 1810.20,  129.26 " style="&st2;" /><text style="&st8;" transform="matrix(&st16;  1794.56  136.01 )"><tspan style="&st18;" x="0" y="0">AH9</tspan></text></a><a ewd:code="AH10" ewd:figID="46" ewd:figtype="w2w" ewd:pinNo="19" style="cursor:pointer;"><path d=" M 1351.27,  622.18  L 1334.28,  622.18  L 1334.28,  630.68  L 1351.27,  630.68  L 1351.27,  622.18 " style="&st2;" /><text style="&st8;" transform="matrix(&st16;  1333.96  628.92 )"><tspan style="&st18;" x="0" y="0">AH10</tspan></text></a><a ewd:code="OO2" ewd:figID="47" ewd:figtype="w2w" ewd:pinNo="17" style="cursor:pointer;"><path d=" M   93.48,  214.25  L   76.49,  214.25  L   76.49,  222.75  L   93.48,  222.75  L   93.48,  214.25 " style="&st2;" /><text style="&st8;" transform="matrix(&st16;  77.1  220.99 )"><tspan style="&st18;" x="0" y="0">OO2</tspan></text></a><a ewd:code="OH3" ewd:figID="48" ewd:figtype="w2w" ewd:pinNo="6" style="cursor:pointer;"><path d=" M 1300.28,  214.25  L 1283.29,  214.25  L 1283.29,  222.75  L 1300.28,  222.75  L 1300.28,  214.25 " style="&st2;" /><text style="&st8;" transform="matrix(&st16;  1284.2  220.99 )"><tspan style="&st18;" x="0" y="0">OH3</tspan></text></a><a ewd:code="OH3" ewd:figID="49" ewd:figtype="w2w" ewd:pinNo="7" style="cursor:pointer;"><path d=" M 1249.29,  214.25  L 1232.29,  214.25  L 1232.29,  222.75  L 1249.29,  222.75  L 1249.29,  214.25 " style="&st2;" /><text style="&st8;" transform="matrix(&st16;  1233.21  220.99 )"><tspan style="&st18;" x="0" y="0">OH3</tspan></text></a><a ewd:code="OH3" ewd:figID="50" ewd:figtype="w2w" ewd:pinNo="15" style="cursor:pointer;"><path d=" M 1300.28,  435.21  L 1283.29,  435.21  L 1283.29,  443.71  L 1300.28,  443.71  L 1300.28,  435.21 " style="&st2;" /><text style="&st8;" transform="matrix(&st16;  1284.2  441.96 )"><tspan style="&st18;" x="0" y="0">OH3</tspan></text></a><a ewd:code="H2" ewd:figID="51" ewd:figtype="gp" style="cursor:pointer;"><path d=" M 1969.55,  681.67  L 1990.79,  681.67  L 1980.17,  697.25  L 1969.55,  681.67 " style="&st2;" /><text style="&st8;" transform="matrix(&st16;  1975.48  689.83 )"><tspan style="&st18;" x="0" y="0">H2</tspan></text></a><a ewd:code="O1" ewd:figID="52" ewd:figtype="gp" style="cursor:pointer;"><path d=" M  346.32,  681.67  L  367.56,  681.67  L  356.94,  697.25  L  346.32,  681.67 " style="&st2;" /><text style="&st8;" transform="matrix(&st16;  352.37  689.83 )"><tspan style="&st18;" x="0" y="0">O1</tspan></text></a><a ewd:code="H1" ewd:figID="53" ewd:figtype="gp" style="cursor:pointer;"><path d=" M 1927.05,  681.67  L 1948.30,  681.67  L 1937.68,  697.25  L 1927.05,  681.67 " style="&st2;" /><text style="&st8;" transform="matrix(&st16;  1933.4  689.83 )"><tspan style="&st18;" x="0" y="0">H1</tspan></text></a><a ewd:code="H2" ewd:figID="54" ewd:figtype="gp" style="cursor:pointer;"><path d=" M  983.71,  681.67  L 1004.96,  681.67  L  994.33,  697.25  L  983.71,  681.67 " style="&st2;" /><text style="&st8;" transform="matrix(&st16;  989.65  689.83 )"><tspan style="&st18;" x="0" y="0">H2</tspan></text></a><a ewd:code="H1" ewd:figID="55" ewd:figtype="gp" style="cursor:pointer;"><path d=" M  941.22,  681.67  L  962.46,  681.67  L  951.84,  697.25  L  941.22,  681.67 " style="&st2;" /><text style="&st8;" transform="matrix(&st16;  947.57  689.83 )"><tspan style="&st18;" x="0" y="0">H1</tspan></text></a></g></svg>