﻿<?xml version="1.0" encoding="utf-8"?>
<!DOCTYPE svg PUBLIC "-//W3C//DTD SVG 1.0//EN" "http://www.w3.org/TR/2001/REC-SVG-20010904/DTD/svg10.dtd"[
	<!ENTITY ns_flows "http://ns.adobe.com/Flows/1.0/">
	<!ENTITY ns_svg "http://www.w3.org/2000/svg">
	<!ENTITY ns_xlink "http://www.w3.org/1999/xlink">
	<!ENTITY st0 "font-size:7px;font-family:'MS-PGothic';adobe-font-script:japanese;">
	<!ENTITY st1 "font-size:6px;font-family:'ArialMT';">
	<!-- White fill  -->
	<!ENTITY st2 "fill:#FFFFFF;stroke:#000000; stroke-width:1.41;stroke-linecap:round;stroke-linejoin:round;">
	<!-- Yellow fill  -->
	<!ENTITY st3 "fill:#FFFFCC;stroke:#FFFFCC; stroke-width:0.1;stroke-linecap:round;stroke-linejoin:round;">
	<!-- Gray fill  -->
	<!ENTITY st4 "fill:#CCCCCC;stroke:#CCCCCC; stroke-width:0.1;stroke-linecap:round;stroke-linejoin:round;">
	<!-- Light-blue fill -->
	<!ENTITY st5 "fill:#CCECF4;stroke:#000000; stroke-width:1.133;stroke-linecap:round;stroke-linejoin:round;">
	<!ENTITY st6 "fill:none;stroke-linecap:butt; stroke-linejoin:round;">
	<!ENTITY st7 "fill:none;stroke:#000000;stroke-linecap:round;stroke-linejoin:round;">
	<!ENTITY st8 "enable-background:new    ;">
	<!-- Black fill -->
	<!ENTITY st9 "fill:#000000;stroke:#000000; stroke-linecap:round;stroke-linejoin:round;">
	<!-- SRS note   -->
	<!ENTITY st10 "font-size:9px;font-family:'ArialMT';">
	<!ENTITY st11 "font-size:9px;font-family:'Svg Symbol';">
	<!ENTITY st12 "font-size:6px;font-family:'Svg Symbol';">
	<!ENTITY st13 "fill:none;stroke:#ff0000;stroke-linecap:round;stroke-linejoin:round;">
	<!-- Yellow fill  -->
	<!ENTITY st14 "fill:#FFFF00;stroke:#FFFF00; stroke-width:0.1;stroke-linecap:round;stroke-linejoin:round;">
	<!ENTITY st15 "font-size:6px;font-family:'MS-PGothic';adobe-font-script:japanese;">
	<!ENTITY st16 "1.00 0.00 0.00 1.00">
	<!ENTITY st17 "0.00 -1.00 1.00 0.00">
	<!ENTITY st18 "font-size:6px;font-family:'Arial';">
	<!ENTITY st19 "font-size:9px;font-family:'Arial';">
	<!ENTITY st20 "font-size:6px;font-family:'MS-PGothic','MS PGothic';adobe-font-script:japanese;">
	<!ENTITY st21 "font-size:7px;font-family:'MS-PGothic','MS PGothic';adobe-font-script:japanese;">
	<!ATTLIST svg
		xmlns:ewd CDATA #FIXED "http://shcl.co.jp/ewd"
		xmlns:a CDATA #FIXED "http://ns.adobe.com/AdobeSVGViewerExtensions/3.0/"
		ewd:ver CDATA #IMPLIED
	>
	<!ATTLIST a
		ewd:lineID CDATA #IMPLIED
		ewd:groupID CDATA #IMPLIED
		ewd:figtype CDATA #IMPLIED
		ewd:code CDATA #IMPLIED
		ewd:figID CDATA #IMPLIED
		ewd:pinNo CDATA #IMPLIED
		ewd:comment CDATA #IMPLIED >
	<!ATTLIST g
		ewd:lineID CDATA #IMPLIED
		ewd:groupID CDATA #IMPLIED
		ewd:figtype CDATA #IMPLIED
		ewd:code CDATA #IMPLIED
		ewd:figID CDATA #IMPLIED
		ewd:pinNo CDATA #IMPLIED
		ewd:comment CDATA #IMPLIED >
	<!ATTLIST text
		ewd:textID CDATA #IMPLIED >
	<!ATTLIST title
		ewd:textID CDATA #IMPLIED >
]>
<!-- Generator: Shintec Hozumi YS   -->
<svg onload="call_execInitLoadProc_svg('system')" style="overflow:visible;  enable-background:new 0 0 4122.520 710.000" viewBox="0 0 4122.520 710.000" height="710.000" width="4122.520" xml:space="preserve" ewd:ver="L2.1.2.8" xmlns="&ns_svg;" xmlns:a="http://ns.adobe.com/AdobeSVGViewerExtensions/3.0/" xmlns:ewd="http://shcl.co.jp/ewd" xmlns:xlink="&ns_xlink;">
<path d=" M 1151.54,  340.56  L 1144.18,  344.81 " style="stroke-width: 0.85 ;&st7; " /><path d=" M 1143.06,  350.23  L 1134.56,  350.23 " style="stroke-width: 0.85 ;&st7; " /><path d=" M 1146.19,  348.28  L 1153.55,  344.03 " style="stroke-width: 0.85 ;&st7; " /><path d=" M 1290.66,  348.28  L 1298.02,  344.03 " style="stroke-width: 0.85 ;&st7; " /><path d=" M 1287.53,  350.23  L 1279.04,  350.23 " style="stroke-width: 0.85 ;&st7; " /><path d=" M 1296.02,  340.56  L 1288.66,  344.81 " style="stroke-width: 0.85 ;&st7; " /><path d=" M 1367.15,  348.28  L 1374.51,  344.03 " style="stroke-width: 0.85 ;&st7; " /><path d=" M 1364.02,  350.23  L 1355.52,  350.23 " style="stroke-width: 0.85 ;&st7; " /><path d=" M 1372.50,  340.56  L 1365.14,  344.81 " style="stroke-width: 0.85 ;&st7; " /><path d=" M 1443.64,  348.28  L 1451.00,  344.03 " style="stroke-width: 0.85 ;&st7; " /><path d=" M 1440.51,  350.23  L 1432.01,  350.23 " style="stroke-width: 0.85 ;&st7; " /><path d=" M 1448.99,  340.56  L 1441.63,  344.81 " style="stroke-width: 0.85 ;&st7; " /><path d=" M 1495.75,  256.74  L 1504.25,  256.74 " style="stroke-width: 1.42 ;&st7; " /><path d=" M 1274.79,  256.74  L 1283.29,  256.74 " style="stroke-width: 1.42 ;&st7; " /><path d=" M 1291.78,  426.71  L 1283.29,  426.71 " style="stroke-width: 1.42 ;&st7; " /><path d=" M 1448.99,  340.56  L 1446.66,  343.60  L 1445.19,  341.06  L 1448.99,  340.56  L 1447.71,  341.30  L 1446.72,  342.59  L 1446.11,  341.51  L 1447.71,  341.30  L 1447.07,  341.67  L 1446.76,  342.08  L 1446.56,  341.74  L 1447.07,  341.67 " style="stroke-width: 0.85 ;&st7; " /><path d=" M 1436.26,  367.22  L 1436.26,  324.73 " style="stroke-width: 0.85 ;&st7; " /><path d=" M 1436.26,  350.23  L 1430.59,  341.73  L 1441.93,  341.73  L 1436.26,  350.23 " style="stroke-width: 0.28 ;&st9;" /><path d=" M 1451.00,  344.03  L 1448.66,  347.07  L 1447.19,  344.53  L 1451.00,  344.03  L 1449.71,  344.77  L 1448.73,  346.05  L 1448.11,  344.98  L 1449.71,  344.77  L 1449.07,  345.14  L 1448.76,  345.55  L 1448.57,  345.21  L 1449.07,  345.14 " style="stroke-width: 0.85 ;&st7; " /><path d=" M 1372.51,  340.56  L 1370.17,  343.60  L 1368.70,  341.06  L 1372.51,  340.56  L 1371.22,  341.30  L 1370.24,  342.59  L 1369.62,  341.51  L 1371.22,  341.30  L 1370.58,  341.67  L 1370.27,  342.08  L 1370.08,  341.74  L 1370.58,  341.67 " style="stroke-width: 0.85 ;&st7; " /><path d=" M 1359.77,  367.22  L 1359.77,  324.73 " style="stroke-width: 0.85 ;&st7; " /><path d=" M 1359.77,  350.23  L 1354.11,  341.73  L 1365.44,  341.73  L 1359.77,  350.23 " style="stroke-width: 0.28 ;&st9;" /><path d=" M 1374.51,  344.03  L 1372.17,  347.07  L 1370.71,  344.53  L 1374.51,  344.03  L 1373.23,  344.77  L 1372.24,  346.05  L 1371.62,  344.98  L 1373.23,  344.77  L 1372.59,  345.14  L 1372.27,  345.55  L 1372.08,  345.21  L 1372.59,  345.14 " style="stroke-width: 0.85 ;&st7; " /><path d=" M 1296.02,  340.56  L 1293.68,  343.60  L 1292.22,  341.06  L 1296.02,  340.56  L 1294.74,  341.30  L 1293.75,  342.59  L 1293.13,  341.51  L 1294.74,  341.30  L 1294.10,  341.67  L 1293.78,  342.08  L 1293.59,  341.74  L 1294.10,  341.67 " style="stroke-width: 0.85 ;&st7; " /><path d=" M 1283.29,  367.22  L 1283.29,  324.73 " style="stroke-width: 0.85 ;&st7; " /><path d=" M 1283.29,  350.23  L 1277.62,  341.73  L 1288.95,  341.73  L 1283.29,  350.23 " style="stroke-width: 0.28 ;&st9;" /><path d=" M 1298.02,  344.03  L 1295.69,  347.07  L 1294.22,  344.53  L 1298.02,  344.03  L 1296.74,  344.77  L 1295.76,  346.05  L 1295.13,  344.98  L 1296.74,  344.77  L 1296.10,  345.14  L 1295.79,  345.55  L 1295.59,  345.21  L 1296.10,  345.14 " style="stroke-width: 0.85 ;&st7; " /><path d=" M 1487.25,  324.73  L 1487.25,  367.22  L 1521.25,  367.22  L 1521.25,  324.73  L 1487.25,  324.73 " style="stroke-width: 1.42 ;&st7; " /><path d=" M 1419.26,  324.73  L 1419.26,  367.22  L 1461.76,  367.22  L 1461.76,  324.73  L 1419.26,  324.73 " style="stroke-width: 1.42 ;&st7; " /><path d=" M 1342.78,  324.73  L 1342.78,  367.22  L 1385.27,  367.22  L 1385.27,  324.73  L 1342.78,  324.73 " style="stroke-width: 1.42 ;&st7; " /><path d=" M 1153.55,  344.03  L 1151.21,  347.07  L 1149.74,  344.53  L 1153.55,  344.03  L 1152.26,  344.77  L 1151.28,  346.05  L 1150.66,  344.98  L 1152.26,  344.77  L 1151.62,  345.14  L 1151.31,  345.55  L 1151.12,  345.21  L 1151.62,  345.14 " style="stroke-width: 0.85 ;&st7; " /><path d=" M 1121.81,  324.73  L 1121.81,  367.22  L 1164.30,  367.22  L 1164.30,  324.73  L 1121.81,  324.73 " style="stroke-width: 1.42 ;&st7; " /><path d=" M 1138.81,  350.23  L 1133.14,  341.73  L 1144.47,  341.73  L 1138.81,  350.23 " style="stroke-width: 0.28 ;&st9;" /><path d=" M 1198.30,  324.73  L 1198.30,  367.22  L 1232.29,  367.22  L 1232.29,  324.73  L 1198.30,  324.73 " style="stroke-width: 1.42 ;&st7; " /><path d=" M 1053.82,  324.73  L 1053.82,  367.22  L 1087.82,  367.22  L 1087.82,  324.73  L 1053.82,  324.73 " style="stroke-width: 1.42 ;&st7; " /><path d=" M 1138.81,  367.22  L 1138.81,  324.73 " style="stroke-width: 0.85 ;&st7; " /><path d=" M 1151.54,  340.56  L 1149.21,  343.60  L 1147.74,  341.06  L 1151.54,  340.56  L 1150.26,  341.30  L 1149.27,  342.59  L 1148.66,  341.51  L 1150.26,  341.30  L 1149.62,  341.67  L 1149.31,  342.08  L 1149.11,  341.74  L 1149.62,  341.67 " style="stroke-width: 0.85 ;&st7; " /><path d=" M 1266.29,  324.73  L 1266.29,  367.22  L 1308.78,  367.22  L 1308.78,  324.73  L 1266.29,  324.73 " style="stroke-width: 1.42 ;&st7; " /><path d=" M 1436.26,  171.76  L 1436.26,  163.26 " style="stroke-width: 0.85 ;&st7; " /><path d=" M 1435.07,  162.26  L 1434.79,  162.73  L 1434.70,  163.26  L 1434.79,  163.79  L 1435.07,  164.26  L 1435.48,  164.61  L 1435.99,  164.79  L 1436.53,  164.79  L 1437.04,  164.61  L 1437.45,  164.26  L 1437.72,  163.79  L 1437.82,  163.26  L 1437.72,  162.73  L 1437.45,  162.26  L 1437.04,  161.91  L 1436.53,  161.72  L 1435.99,  161.72  L 1435.48,  161.91  L 1435.07,  162.26  L 1435.46,  162.97  L 1435.46,  163.55  L 1435.83,  163.99  L 1436.41,  164.09  L 1436.91,  163.80  L 1437.11,  163.26  L 1436.91,  162.71  L 1436.41,  162.42  L 1435.83,  162.52  L 1436.26,  163.26 " style="stroke-width: 0.85 ;&st7; " /><path d=" M 1359.77,  171.76  L 1359.77,  163.26 " style="stroke-width: 0.85 ;&st7; " /><path d=" M 1358.58,  162.26  L 1358.31,  162.73  L 1358.21,  163.26  L 1358.31,  163.79  L 1358.58,  164.26  L 1358.99,  164.61  L 1359.50,  164.79  L 1360.04,  164.79  L 1360.55,  164.61  L 1360.96,  164.26  L 1361.24,  163.79  L 1361.33,  163.26  L 1361.24,  162.73  L 1360.96,  162.26  L 1360.55,  161.91  L 1360.04,  161.72  L 1359.50,  161.72  L 1358.99,  161.91  L 1358.58,  162.26  L 1358.97,  162.97  L 1358.97,  163.55  L 1359.35,  163.99  L 1359.92,  164.09  L 1360.42,  163.80  L 1360.62,  163.26  L 1360.42,  162.71  L 1359.92,  162.42  L 1359.35,  162.52  L 1359.77,  163.26 " style="stroke-width: 0.85 ;&st7; " /><path d=" M 1283.29,  171.76  L 1283.29,  163.26 " style="stroke-width: 0.85 ;&st7; " /><path d=" M 1282.09,  162.26  L 1281.82,  162.73  L 1281.73,  163.26  L 1281.82,  163.79  L 1282.09,  164.26  L 1282.51,  164.61  L 1283.01,  164.79  L 1283.56,  164.79  L 1284.06,  164.61  L 1284.48,  164.26  L 1284.75,  163.79  L 1284.84,  163.26  L 1284.75,  162.73  L 1284.48,  162.26  L 1284.06,  161.91  L 1283.56,  161.72  L 1283.01,  161.72  L 1282.51,  161.91  L 1282.09,  162.26  L 1282.49,  162.97  L 1282.49,  163.55  L 1282.86,  163.99  L 1283.43,  164.09  L 1283.94,  163.80  L 1284.13,  163.26  L 1283.94,  162.71  L 1283.43,  162.42  L 1282.86,  162.52  L 1283.29,  163.26 " style="stroke-width: 0.85 ;&st7; " /><path d=" M 1215.30,  171.76  L 1215.30,  154.76 " style="stroke-width: 0.85 ;&st7; " /><path d=" M 1214.10,  162.26  L 1213.83,  162.73  L 1213.74,  163.26  L 1213.83,  163.79  L 1214.10,  164.26  L 1214.52,  164.61  L 1215.02,  164.79  L 1215.57,  164.79  L 1216.08,  164.61  L 1216.49,  164.26  L 1216.76,  163.79  L 1216.85,  163.26  L 1216.76,  162.73  L 1216.49,  162.26  L 1216.08,  161.91  L 1215.57,  161.72  L 1215.02,  161.72  L 1214.52,  161.91  L 1214.10,  162.26  L 1214.50,  162.97  L 1214.50,  163.55  L 1214.87,  163.99  L 1215.44,  164.09  L 1215.95,  163.80  L 1216.15,  163.26  L 1215.95,  162.71  L 1215.44,  162.42  L 1214.87,  162.52  L 1215.30,  163.26 " style="stroke-width: 0.85 ;&st7; " /><path d=" M 1138.81,  171.76  L 1138.81,  154.76 " style="stroke-width: 0.85 ;&st7; " /><path d=" M 1137.62,  162.26  L 1137.34,  162.73  L 1137.25,  163.26  L 1137.34,  163.79  L 1137.62,  164.26  L 1138.03,  164.61  L 1138.54,  164.79  L 1139.08,  164.79  L 1139.59,  164.61  L 1140.00,  164.26  L 1140.27,  163.79  L 1140.37,  163.26  L 1140.27,  162.73  L 1140.00,  162.26  L 1139.59,  161.91  L 1139.08,  161.72  L 1138.54,  161.72  L 1138.03,  161.91  L 1137.62,  162.26  L 1138.01,  162.97  L 1138.01,  163.55  L 1138.38,  163.99  L 1138.96,  164.09  L 1139.46,  163.80  L 1139.66,  163.26  L 1139.46,  162.71  L 1138.96,  162.42  L 1138.38,  162.52  L 1138.81,  163.26 " style="stroke-width: 0.85 ;&st7; " /><path d=" M 1070.82,  171.76  L 1070.82,  154.76 " style="stroke-width: 0.85 ;&st7; " /><path d=" M 1069.63,  162.26  L 1069.36,  162.73  L 1069.26,  163.26  L 1069.36,  163.79  L 1069.63,  164.26  L 1070.04,  164.61  L 1070.55,  164.79  L 1071.09,  164.79  L 1071.60,  164.61  L 1072.01,  164.26  L 1072.29,  163.79  L 1072.38,  163.26  L 1072.29,  162.73  L 1072.01,  162.26  L 1071.60,  161.91  L 1071.09,  161.72  L 1070.55,  161.72  L 1070.04,  161.91  L 1069.63,  162.26  L 1070.02,  162.97  L 1070.02,  163.55  L 1070.40,  163.99  L 1070.97,  164.09  L 1071.47,  163.80  L 1071.67,  163.26  L 1071.47,  162.71  L 1070.97,  162.42  L 1070.40,  162.52  L 1070.82,  163.26 " style="stroke-width: 0.85 ;&st7; " /><path d=" M 1249.29,  486.20  L 1249.29,  503.20 " style="stroke-width: 0.85 ;&st7; " /><path d=" M 1248.10,  493.70  L 1247.83,  494.17  L 1247.73,  494.70  L 1247.83,  495.24  L 1248.10,  495.71  L 1248.51,  496.05  L 1249.02,  496.24  L 1249.56,  496.24  L 1250.07,  496.05  L 1250.48,  495.71  L 1250.76,  495.24  L 1250.85,  494.70  L 1250.76,  494.17  L 1250.48,  493.70  L 1250.07,  493.35  L 1249.56,  493.17  L 1249.02,  493.17  L 1248.51,  493.35  L 1248.10,  493.70  L 1248.49,  494.41  L 1248.49,  494.99  L 1248.87,  495.44  L 1249.44,  495.54  L 1249.94,  495.25  L 1250.14,  494.70  L 1249.94,  494.16  L 1249.44,  493.87  L 1248.87,  493.97  L 1249.29,  494.70 " style="stroke-width: 0.85 ;&st7; " /><path d=" M 1070.82,  486.20  L 1070.82,  503.20 " style="stroke-width: 0.85 ;&st7; " /><path d=" M 1069.63,  493.70  L 1069.36,  494.17  L 1069.26,  494.70  L 1069.36,  495.24  L 1069.63,  495.71  L 1070.04,  496.05  L 1070.55,  496.24  L 1071.09,  496.24  L 1071.60,  496.05  L 1072.01,  495.71  L 1072.29,  495.24  L 1072.38,  494.70  L 1072.29,  494.17  L 1072.01,  493.70  L 1071.60,  493.35  L 1071.09,  493.17  L 1070.55,  493.17  L 1070.04,  493.35  L 1069.63,  493.70  L 1070.02,  494.41  L 1070.02,  494.99  L 1070.40,  495.44  L 1070.97,  495.54  L 1071.47,  495.25  L 1071.67,  494.70  L 1071.47,  494.16  L 1070.97,  493.87  L 1070.40,  493.97  L 1070.82,  494.70 " style="stroke-width: 0.85 ;&st7; " /><path d=" M 1214.10,  493.70  L 1213.83,  494.17  L 1213.74,  494.70  L 1213.83,  495.24  L 1214.10,  495.71  L 1214.52,  496.05  L 1215.02,  496.24  L 1215.57,  496.24  L 1216.08,  496.05  L 1216.49,  495.71  L 1216.76,  495.24  L 1216.85,  494.70  L 1216.76,  494.17  L 1216.49,  493.70  L 1216.08,  493.35  L 1215.57,  493.17  L 1215.02,  493.17  L 1214.52,  493.35  L 1214.10,  493.70  L 1214.50,  494.41  L 1214.50,  494.99  L 1214.87,  495.44  L 1215.44,  495.54  L 1215.95,  495.25  L 1216.15,  494.70  L 1215.95,  494.16  L 1215.44,  493.87  L 1214.87,  493.97  L 1215.30,  494.70 " style="stroke-width: 0.85 ;&st7; " /><path d=" M 1215.30,  486.20  L 1215.30,  503.20 " style="stroke-width: 0.85 ;&st7; " /><path d=" M 1287.53,  251.08  L 1283.29,  255.33  L 1279.04,  251.08 " style="stroke-width: 1.42 ;&st7; " /><path d=" M 1279.04,  247.68  L 1283.29,  251.93  L 1287.53,  247.68 " style="stroke-width: 1.42 ;&st7; " /><path d=" M 1215.30,  163.26  L 1759.21,  163.26 " style="stroke-width: 0.85 ;&st7; " /><path d=" M 1283.29,  486.20  L 1283.29,  503.20 " style="stroke-width: 0.85 ;&st7; " /><path d=" M 1282.09,  493.70  L 1281.82,  494.17  L 1281.73,  494.70  L 1281.82,  495.24  L 1282.09,  495.71  L 1282.51,  496.05  L 1283.01,  496.24  L 1283.56,  496.24  L 1284.06,  496.05  L 1284.48,  495.71  L 1284.75,  495.24  L 1284.84,  494.70  L 1284.75,  494.17  L 1284.48,  493.70  L 1284.06,  493.35  L 1283.56,  493.17  L 1283.01,  493.17  L 1282.51,  493.35  L 1282.09,  493.70  L 1282.49,  494.41  L 1282.49,  494.99  L 1282.86,  495.44  L 1283.43,  495.54  L 1283.94,  495.25  L 1284.13,  494.70  L 1283.94,  494.16  L 1283.43,  493.87  L 1282.86,  493.97  L 1283.29,  494.70 " style="stroke-width: 0.85 ;&st7; " /><path d=" M 1359.77,  486.20  L 1359.77,  494.70 " style="stroke-width: 0.85 ;&st7; " /><path d=" M 1358.58,  493.70  L 1358.31,  494.17  L 1358.21,  494.70  L 1358.31,  495.24  L 1358.58,  495.71  L 1358.99,  496.05  L 1359.50,  496.24  L 1360.04,  496.24  L 1360.55,  496.05  L 1360.96,  495.71  L 1361.24,  495.24  L 1361.33,  494.70  L 1361.24,  494.17  L 1360.96,  493.70  L 1360.55,  493.35  L 1360.04,  493.17  L 1359.50,  493.17  L 1358.99,  493.35  L 1358.58,  493.70  L 1358.97,  494.41  L 1358.97,  494.99  L 1359.35,  495.44  L 1359.92,  495.54  L 1360.42,  495.25  L 1360.62,  494.70  L 1360.42,  494.16  L 1359.92,  493.87  L 1359.35,  493.97  L 1359.77,  494.70 " style="stroke-width: 0.85 ;&st7; " /><path d=" M 1436.26,  486.20  L 1436.26,  494.70 " style="stroke-width: 0.85 ;&st7; " /><path d=" M 1435.07,  493.70  L 1434.79,  494.17  L 1434.70,  494.70  L 1434.79,  495.24  L 1435.07,  495.71  L 1435.48,  496.05  L 1435.99,  496.24  L 1436.53,  496.24  L 1437.04,  496.05  L 1437.45,  495.71  L 1437.72,  495.24  L 1437.82,  494.70  L 1437.72,  494.17  L 1437.45,  493.70  L 1437.04,  493.35  L 1436.53,  493.17  L 1435.99,  493.17  L 1435.48,  493.35  L 1435.07,  493.70  L 1435.46,  494.41  L 1435.46,  494.99  L 1435.83,  495.44  L 1436.41,  495.54  L 1436.91,  495.25  L 1437.11,  494.70  L 1436.91,  494.16  L 1436.41,  493.87  L 1435.83,  493.97  L 1436.26,  494.70 " style="stroke-width: 0.85 ;&st7; " /><path d=" M 1249.29,  494.70  L 1691.22,  494.70 " style="stroke-width: 0.85 ;&st7; " /><path d=" M 1287.53,  435.78  L 1283.29,  431.53  L 1279.04,  435.78 " style="stroke-width: 1.42 ;&st7; " /><path d=" M 1287.53,  432.38  L 1283.29,  428.13  L 1279.04,  432.38 " style="stroke-width: 1.42 ;&st7; " /><path d=" M 1440.79,  320.20  C 1440.79   317.70  1438.76   315.67  1436.26   315.67 " style="stroke-width: 1.42 ;&st7; " /><path d=" M 1436.26,  315.67  C 1433.76   315.67  1431.73   317.70  1431.73   320.20 " style="stroke-width: 1.42 ;&st7; " /><path d=" M 1431.73,  320.20  C 1431.73   322.70  1433.76   324.73  1436.26   324.73 " style="stroke-width: 1.42 ;&st7; " /><path d=" M 1436.26,  324.73  C 1438.76   324.73  1440.79   322.70  1440.79   320.20 " style="stroke-width: 1.42 ;&st7; " /><path d=" M 1364.31,  311.13  C 1364.31   308.63  1362.28   306.60  1359.77   306.60 " style="stroke-width: 1.42 ;&st7; " /><path d=" M 1359.77,  306.60  C 1357.27   306.60  1355.24   308.63  1355.24   311.13 " style="stroke-width: 1.42 ;&st7; " /><path d=" M 1355.24,  311.13  C 1355.24   313.64  1357.27   315.67  1359.77   315.67 " style="stroke-width: 1.42 ;&st7; " /><path d=" M 1359.77,  315.67  C 1362.28   315.67  1364.31   313.64  1364.31   311.13 " style="stroke-width: 1.42 ;&st7; " /><path d=" M 1364.31,  371.76  C 1364.31   369.25  1362.28   367.22  1359.77   367.22 " style="stroke-width: 1.42 ;&st7; " /><path d=" M 1359.77,  367.22  C 1357.27   367.22  1355.24   369.25  1355.24   371.76 " style="stroke-width: 1.42 ;&st7; " /><path d=" M 1355.24,  371.76  C 1355.24   374.26  1357.27   376.29  1359.77   376.29 " style="stroke-width: 1.42 ;&st7; " /><path d=" M 1359.77,  376.29  C 1362.28   376.29  1364.31   374.26  1364.31   371.76 " style="stroke-width: 1.42 ;&st7; " /><path d=" M 1364.31,  320.20  C 1364.31   317.70  1362.28   315.67  1359.77   315.67 " style="stroke-width: 1.42 ;&st7; " /><path d=" M 1359.77,  315.67  C 1357.27   315.67  1355.24   317.70  1355.24   320.20 " style="stroke-width: 1.42 ;&st7; " /><path d=" M 1355.24,  320.20  C 1355.24   322.70  1357.27   324.73  1359.77   324.73 " style="stroke-width: 1.42 ;&st7; " /><path d=" M 1359.77,  324.73  C 1362.28   324.73  1364.31   322.70  1364.31   320.20 " style="stroke-width: 1.42 ;&st7; " /><path d=" M 1440.79,  311.13  C 1440.79   308.63  1438.76   306.60  1436.26   306.60 " style="stroke-width: 1.42 ;&st7; " /><path d=" M 1436.26,  306.60  C 1433.76   306.60  1431.73   308.63  1431.73   311.13 " style="stroke-width: 1.42 ;&st7; " /><path d=" M 1431.73,  311.13  C 1431.73   313.64  1433.76   315.67  1436.26   315.67 " style="stroke-width: 1.42 ;&st7; " /><path d=" M 1436.26,  315.67  C 1438.76   315.67  1440.79   313.64  1440.79   311.13 " style="stroke-width: 1.42 ;&st7; " /><path d=" M 1364.31,  380.82  C 1364.31   378.32  1362.28   376.29  1359.77   376.29 " style="stroke-width: 1.42 ;&st7; " /><path d=" M 1359.77,  376.29  C 1357.27   376.29  1355.24   378.32  1355.24   380.82 " style="stroke-width: 1.42 ;&st7; " /><path d=" M 1355.24,  380.82  C 1355.24   383.32  1357.27   385.35  1359.77   385.35 " style="stroke-width: 1.42 ;&st7; " /><path d=" M 1359.77,  385.35  C 1362.28   385.35  1364.31   383.32  1364.31   380.82 " style="stroke-width: 1.42 ;&st7; " /><path d=" M 1440.79,  371.76  C 1440.79   369.25  1438.76   367.22  1436.26   367.22 " style="stroke-width: 1.42 ;&st7; " /><path d=" M 1436.26,  367.22  C 1433.76   367.22  1431.73   369.25  1431.73   371.76 " style="stroke-width: 1.42 ;&st7; " /><path d=" M 1431.73,  371.76  C 1431.73   374.26  1433.76   376.29  1436.26   376.29 " style="stroke-width: 1.42 ;&st7; " /><path d=" M 1436.26,  376.29  C 1438.76   376.29  1440.79   374.26  1440.79   371.76 " style="stroke-width: 1.42 ;&st7; " /><path d=" M 1440.79,  380.82  C 1440.79   378.32  1438.76   376.29  1436.26   376.29 " style="stroke-width: 1.42 ;&st7; " /><path d=" M 1436.26,  376.29  C 1433.76   376.29  1431.73   378.32  1431.73   380.82 " style="stroke-width: 1.42 ;&st7; " /><path d=" M 1431.73,  380.82  C 1431.73   383.32  1433.76   385.35  1436.26   385.35 " style="stroke-width: 1.42 ;&st7; " /><path d=" M 1436.26,  385.35  C 1438.76   385.35  1440.79   383.32  1440.79   380.82 " style="stroke-width: 1.42 ;&st7; " /><text ewd:textID="1" style="&st18;" transform="matrix(&st16;  1357.25  29.25 )">* 1 :w/ Climate Control Seat</text><text ewd:textID="3" style="&st18;" transform="matrix(&st16;  1357.25  46.25 )">* 3 :w/ Seat Position Memory</text><text ewd:textID="4" style="&st18;" transform="matrix(&st16;  1357.25  54.75 )">* 4 :w/ Power Back Door</text><text ewd:textID="17" style="&st18;" transform="matrix(&st16;  1357.25  63.24 )">*28 :w/ Blind Spot Monitor System</text><text style="&st18;" transform="matrix(&st17;  1067.12  122.74 )">L</text><text style="&st18;" transform="matrix(&st16;  1365.75  382.79 )">(*1)</text><text style="&st18;" transform="matrix(&st16;  1349.67  382.79 )">1</text><text style="&st18;" transform="matrix(&st16;  1357.44  382.79 )">B</text><text style="&st18;" transform="matrix(&st16;  1442.23  373.73 )">(*2)</text><text style="&st18;" transform="matrix(&st16;  1426.16  373.73 )">1</text><text style="&st18;" transform="matrix(&st16;  1433.93  373.73 )">A</text><text style="&st18;" transform="matrix(&st16;  1442.23  382.79 )">(*1)</text><text style="&st18;" transform="matrix(&st16;  1425.38  382.79 )">5</text><text style="&st18;" transform="matrix(&st16;  1433.93  382.79 )">B</text><text style="&st18;" transform="matrix(&st16;  1494.28  179.95 )">18</text><text ewd:textID="37" style="&st18;" transform="matrix(&st16;  1331.75  151.06 )">Junction Connector</text><text style="&st18;" transform="matrix(&st16;  1331.75  143.96 )">H123</text><text style="&st18;" transform="matrix(&st16;  1426.29  179.95 )">19</text><text style="&st18;" transform="matrix(&st16;  1349.03  179.95 )">20</text><text style="&st18;" transform="matrix(&st16;  1273.32  179.95 )">14</text><text style="&st18;" transform="matrix(&st16;  1205.33  179.95 )">16</text><text style="&st18;" transform="matrix(&st16;  1132.02  179.95 )">2</text><text style="&st18;" transform="matrix(&st16;  1064.03  179.95 )">7</text><text style="&st18;" transform="matrix(&st16;  1238.55  511.39 )">22</text><text style="&st18;" transform="matrix(&st16;  1239.32  482.51 )">19</text><text style="&st18;" transform="matrix(&st16;  1064.03  511.39 )">9</text><text style="&st18;" transform="matrix(&st16;  1209.29  482.51 )">1</text><text style="&st18;" transform="matrix(&st16;  1141.64  332.92 )">ILL+</text><text style="&st18;" transform="matrix(&st16;  1060.85  482.51 )">10</text><text style="&st18;" transform="matrix(&st17;  1146.45  281.9 )">(*28)</text><text style="&st18;" transform="matrix(&st17;  1146.45  426.37 )">(*28)</text><text style="&st18;" transform="matrix(&st16;  1206.11  511.39 )">11</text><text style="&st18;" transform="matrix(&st16;  1064.03  151.07 )">3</text><text style="&st18;" transform="matrix(&st16;  1129.62  151.07 )">11</text><text style="&st18;" transform="matrix(&st16;  1204.55  151.07 )">22</text><text style="&st18;" transform="matrix(&st16;  1172.39  125.57 )">SB</text><text style="&st18;" transform="matrix(&st16;  1494.28  482.51 )">17</text><text style="&st18;" transform="matrix(&st16;  1426.29  482.51 )">18</text><text style="&st18;" transform="matrix(&st16;  1349.03  482.51 )">20</text><text style="&st18;" transform="matrix(&st17;  1279.59  224.73 )">L</text><text style="&st18;" transform="matrix(&st16;  1273.32  482.51 )">14</text><text style="&st18;" transform="matrix(&st16;  1227.63  525.0 )">SB</text><text style="&st18;" transform="matrix(&st17;  1279.59  401.63 )">BE</text><text style="&st18;" transform="matrix(&st16;  1265.29  424.43 )">12</text><text style="&st18;" transform="matrix(&st17;  1279.59  457.01 )">BR</text><text style="&st18;" transform="matrix(&st16;  1273.32  511.39 )">16</text><text ewd:textID="37" style="&st18;" transform="matrix(&st16;  1399.74  517.92 )">Junction Connector</text><text style="&st18;" transform="matrix(&st16;  1399.74  510.81 )">H124</text><text style="&st18;" transform="matrix(&st16;  1006.67  635.48 )">BE</text><text style="&st18;" transform="matrix(&st16;  1057.66  635.48 )">BE</text><text ewd:textID="2" style="&st18;" transform="matrix(&st16;  1357.25  37.75 )">* 2 :w/o Climate Control Seat</text><text style="&st18;" transform="matrix(&st16;  1433.93  322.17 )">B</text><text style="&st18;" transform="matrix(&st16;  1422.98  322.17 )">11</text><text style="&st18;" transform="matrix(&st16;  1442.23  322.17 )">(*1)</text><text style="&st18;" transform="matrix(&st16;  1141.64  363.53 )">ILL-</text><text style="&st18;" transform="matrix(&st17;  1316.39  369.75 )">S6</text><text style="&st18;" transform="matrix(&st17;  1067.13  278.47 )">LG</text><text style="&st18;" transform="matrix(&st16;  1132.02  375.42 )">9</text><text style="&st18;" transform="matrix(&st16;  1128.84  321.04 )">10</text><text style="&st18;" transform="matrix(&st17;  1095.43  369.75 )">H31</text><text style="&st18;" transform="matrix(&st17;  1067.13  420.55 )">P</text><text ewd:textID="65" style="&st18;" transform="matrix(&st17;  1102.54  369.75 )">Transmission Control Switch</text><text style="&st18;" transform="matrix(&st17;  1135.11  276.21 )">R</text><text style="&st18;" transform="matrix(&st16;  1063.86  332.37 )">ILL+</text><text style="&st18;" transform="matrix(&st17;  1171.92  369.75 )">H121</text><text style="&st18;" transform="matrix(&st17;  1135.11  421.57 )">W</text><text style="&st18;" transform="matrix(&st16;  1265.29  262.96 )">13</text><text style="&st18;" transform="matrix(&st16;  1064.03  321.04 )">4</text><text style="&st18;" transform="matrix(&st16;  1064.03  375.42 )">8</text><text ewd:textID="67" style="&st18;" transform="matrix(&st17;  1179.02  369.75 )">Warning Canceling Switch Assembly</text><text style="&st18;" transform="matrix(&st16;  1063.86  363.53 )">ILL-</text><text style="&st18;" transform="matrix(&st16;  1208.34  363.53 )">ILL-</text><text ewd:textID="23" style="&st18;" transform="matrix(&st17;  1247.01  369.75 )">Differential Lock Switch</text><text style="&st18;" transform="matrix(&st16;  1208.51  375.42 )">7</text><text style="&st18;" transform="matrix(&st16;  1208.51  321.04 )">8</text><text style="&st18;" transform="matrix(&st17;  1211.6  278.97 )">GR</text><text style="&st18;" transform="matrix(&st17;  1211.6  420.55 )">V</text><text style="&st18;" transform="matrix(&st17;  1239.91  369.75 )">H68</text><text style="&st18;" transform="matrix(&st16;  1208.34  332.37 )">ILL+</text><text style="&st18;" transform="matrix(&st17;  1279.59  296.96 )">L</text><text style="&st18;" transform="matrix(&st16;  1276.5  321.04 )">2</text><text style="&st18;" transform="matrix(&st16;  1277.27  375.42 )">1</text><text ewd:textID="43" style="&st18;" transform="matrix(&st17;  1323.5  369.75 )">No.1 Interior Illumination Light Assembly</text><text style="&st18;" transform="matrix(&st17;  1392.88  369.75 )">H47(A),(B)</text><text ewd:textID="25" style="&st18;" transform="matrix(&st17;  1399.99  369.75 )">Front Seat Heater Switch LH</text><text style="&st18;" transform="matrix(&st17;  1356.08  276.49 )">G</text><text style="&st18;" transform="matrix(&st17;  1356.08  421.57 )">W</text><text style="&st18;" transform="matrix(&st17;  1432.56  420.55 )">Y</text><text style="&st18;" transform="matrix(&st17;  1432.56  276.21 )">R</text><text ewd:textID="26" style="&st18;" transform="matrix(&st17;  1476.47  369.75 )">Front Seat Heater Switch RH</text><text style="&st18;" transform="matrix(&st17;  1469.37  369.75 )">H48(A),H49(B)</text><text style="&st18;" transform="matrix(&st17;  1067.13  548.02 )">B</text><text style="&st18;" transform="matrix(&st17;  1279.59  548.17 )">R</text><text style="&st18;" transform="matrix(&st16;  1286.12  363.53 )">ILL-</text><text style="&st18;" transform="matrix(&st16;  1286.12  332.92 )">ILL+</text><text style="&st18;" transform="matrix(&st16;  1362.61  363.53 )">ILL-</text><text style="&st18;" transform="matrix(&st16;  1362.61  332.92 )">ILL+</text><text style="&st18;" transform="matrix(&st16;  1439.09  363.53 )">ILL-</text><text style="&st18;" transform="matrix(&st16;  1439.09  332.92 )">ILL+</text><text style="&st18;" transform="matrix(&st16;  1497.46  321.04 )">2</text><text style="&st18;" transform="matrix(&st16;  1497.46  375.42 )">3</text><text style="&st18;" transform="matrix(&st16;  1497.29  363.53 )">ILL-</text><text style="&st18;" transform="matrix(&st16;  1497.29  332.37 )">ILL+</text><text style="&st18;" transform="matrix(&st16;  1357.44  313.1 )">A</text><text style="&st18;" transform="matrix(&st16;  1348.9  313.1 )">8</text><text style="&st18;" transform="matrix(&st16;  1365.75  313.1 )">(*2)</text><text style="&st18;" transform="matrix(&st16;  1357.44  322.17 )">B</text><text style="&st18;" transform="matrix(&st16;  1348.9  322.17 )">7</text><text style="&st18;" transform="matrix(&st16;  1357.44  373.73 )">A</text><text style="&st18;" transform="matrix(&st16;  1348.9  373.73 )">2</text><text style="&st18;" transform="matrix(&st16;  1365.75  373.73 )">(*2)</text><text style="&st18;" transform="matrix(&st16;  1433.93  313.1 )">A</text><text style="&st18;" transform="matrix(&st16;  1425.38  313.1 )">6</text><text style="&st18;" transform="matrix(&st16;  1487.03  432.93 )">11</text><text style="&st18;" transform="matrix(&st16;  1486.26  262.96 )">17</text><text style="&st18;" transform="matrix(&st16;  1365.75  322.17 )">(*1)</text><text style="&st18;" transform="matrix(&st16;  1442.23  313.1 )">(*2)</text></svg>