﻿<?xml version="1.0" encoding="utf-8"?>
<!DOCTYPE svg PUBLIC "-//W3C//DTD SVG 1.0//EN" "http://www.w3.org/TR/2001/REC-SVG-20010904/DTD/svg10.dtd"[
	<!ENTITY ns_flows "http://ns.adobe.com/Flows/1.0/">
	<!ENTITY ns_svg "http://www.w3.org/2000/svg">
	<!ENTITY ns_xlink "http://www.w3.org/1999/xlink">
	<!ENTITY st0 "font-size:7px;font-family:'MS-PGothic';adobe-font-script:japanese;">
	<!ENTITY st1 "font-size:6px;font-family:'ArialMT';">
	<!-- White fill  -->
	<!ENTITY st2 "fill:#FFFFFF;stroke:#000000; stroke-width:1.41;stroke-linecap:round;stroke-linejoin:round;">
	<!-- Yellow fill  -->
	<!ENTITY st3 "fill:#FFFFCC;stroke:#FFFFCC; stroke-width:0.1;stroke-linecap:round;stroke-linejoin:round;">
	<!-- Gray fill  -->
	<!ENTITY st4 "fill:#CCCCCC;stroke:#CCCCCC; stroke-width:0.1;stroke-linecap:round;stroke-linejoin:round;">
	<!-- Light-blue fill -->
	<!ENTITY st5 "fill:#CCECF4;stroke:#000000; stroke-width:1.133;stroke-linecap:round;stroke-linejoin:round;">
	<!ENTITY st6 "fill:none;stroke-linecap:butt; stroke-linejoin:round;">
	<!ENTITY st7 "fill:none;stroke:#000000;stroke-linecap:round;stroke-linejoin:round;">
	<!ENTITY st8 "enable-background:new    ;">
	<!-- Black fill -->
	<!ENTITY st9 "fill:#000000;stroke:#000000; stroke-linecap:round;stroke-linejoin:round;">
	<!-- SRS note   -->
	<!ENTITY st10 "font-size:9px;font-family:'ArialMT';">
	<!ENTITY st11 "font-size:9px;font-family:'Svg Symbol';">
	<!ENTITY st12 "font-size:6px;font-family:'Svg Symbol';">
	<!ENTITY st13 "fill:none;stroke:#ff0000;stroke-linecap:round;stroke-linejoin:round;">
	<!-- Yellow fill  -->
	<!ENTITY st14 "fill:#FFFF00;stroke:#FFFF00; stroke-width:0.1;stroke-linecap:round;stroke-linejoin:round;">
	<!ENTITY st15 "font-size:6px;font-family:'MS-PGothic';adobe-font-script:japanese;">
	<!ENTITY st16 "1.00 0.00 0.00 1.00">
	<!ENTITY st17 "0.00 -1.00 1.00 0.00">
	<!ENTITY st18 "font-size:6px;font-family:'Arial';">
	<!ENTITY st19 "font-size:9px;font-family:'Arial';">
	<!ENTITY st20 "font-size:6px;font-family:'MS-PGothic','MS PGothic';adobe-font-script:japanese;">
	<!ENTITY st21 "font-size:7px;font-family:'MS-PGothic','MS PGothic';adobe-font-script:japanese;">
	<!ATTLIST svg
		xmlns:ewd CDATA #FIXED "http://shcl.co.jp/ewd"
		xmlns:a CDATA #FIXED "http://ns.adobe.com/AdobeSVGViewerExtensions/3.0/"
		ewd:ver CDATA #IMPLIED
	>
	<!ATTLIST a
		ewd:lineID CDATA #IMPLIED
		ewd:groupID CDATA #IMPLIED
		ewd:figtype CDATA #IMPLIED
		ewd:code CDATA #IMPLIED
		ewd:figID CDATA #IMPLIED
		ewd:pinNo CDATA #IMPLIED
		ewd:comment CDATA #IMPLIED >
	<!ATTLIST g
		ewd:lineID CDATA #IMPLIED
		ewd:groupID CDATA #IMPLIED
		ewd:figtype CDATA #IMPLIED
		ewd:code CDATA #IMPLIED
		ewd:figID CDATA #IMPLIED
		ewd:pinNo CDATA #IMPLIED
		ewd:comment CDATA #IMPLIED >
	<!ATTLIST text
		ewd:textID CDATA #IMPLIED >
	<!ATTLIST title
		ewd:textID CDATA #IMPLIED >
]>
<!-- Generator: Shintec Hozumi YS   -->
<svg onload="call_execInitLoadProc_svg('system')" style="overflow:visible;  enable-background:new 0 0 983.513 710.000" viewBox="0 0 983.513 710.000" height="710.000" width="983.513" xml:space="preserve" ewd:ver="L2.1.2.8" xmlns="&ns_svg;" xmlns:a="http://ns.adobe.com/AdobeSVGViewerExtensions/3.0/" xmlns:ewd="http://shcl.co.jp/ewd" xmlns:xlink="&ns_xlink;"><script type="text/javascript" xlink:href="../../../../../system/js/ewd/fig/svgfig.js" xmlns:xlink="http://www.w3.org/1999/xlink" /><defs><font horiz-adv-x="1229"><font-face font-family="Svg Symbol" units-per-em="2048" panose-1="5 5 1 2 1 7 6 2 5 7" ascent="2059" descent="450" alphabetic="0" /><missing-glyph d="M 103,0 l 0,1280 1024,0 0,-1280 -1024,0 z m 32,32 l 960,0 0,1216 -960,0 0,-1216 z" /><glyph unicode="" horiz-adv-x="1573" d="M 1517,0 l -567,0 24,279 q 141,59 207.5,168 66.5,109 66.5,306    0,272 -132.5,417.5 -132.5,145.5 -333.5,145.5 -194,0 -328,-147.5 -134,-147.5 -134,-401.5 0,-200 68.5,-319 68.5,-119     206.5,-169 l 25,-279 -564,0 0,279 35,0 q 3,-61 32,-83 45,-35 137,-35 l 270,0 0,70 q -210,61 -324.5,209 -114.5,148     -114.5,349 0,252 186.5,425 186.5,173 504.5,173 195,0 358.5,-73.5 163.5,-73.5 252,-214.5 88.5,-141 88.5,-310 0,-207     -121.5,-360.5 -121.5,-153.5 -317.5,-197.5 l -8,-70 275,0 q 92,0 128,28 36,28 42,90 l 38,0 0,-279 z" /></font></defs>
<g id="ewd_top"><a ewd:code="1" ewd:figID="1" ewd:figtype="rb" style="cursor:pointer;"><path d=" M  628.89,  282.24  L  586.40,  282.24  L  586.40,  316.23  L  628.89,  316.23  L  628.89,  282.24 " style="&st5;" /></a><a ewd:code="A54" ewd:figID="2" ewd:figtype="conn" style="cursor:pointer;"><path d=" M  739.38,  554.19  L  739.38,  571.19  L  875.35,  571.19  L  875.35,  554.19  L  739.38,  554.19 " style="&st5;" /><title ewd:textID="10">Junction Connector</title></a><a ewd:code="FUSE42" ewd:figID="3" ewd:figtype="rb" style="cursor:pointer;"><path d=" M  624.65,   35.78  L  624.65,   78.27  L  650.14,   78.27  L  650.14,   35.78  L  624.65,   35.78 " style="&st5;" /></a><a ewd:code="A19" ewd:figID="4" ewd:figtype="conn" style="cursor:pointer;"><path d=" M   67.99,  562.69  L   67.99,  605.18  L  220.96,  605.18  L  220.96,  562.69  L   67.99,  562.69 " style="&st5;" /><title ewd:textID="5">ABS and Traction Actuator Assembly</title></a><a ewd:code="H119" ewd:figID="5" ewd:figtype="conn" style="cursor:pointer;"><path d=" M   50.99,  358.73  L  212.46,  358.73  L  212.46,  384.22  L   50.99,  384.22  L   50.99,  358.73 " style="&st5;" /><title ewd:textID="10">Junction Connector</title></a><a ewd:code="1" ewd:figID="6" ewd:figtype="rb" style="cursor:pointer;"><path d=" M  875.35,  460.71  L  858.36,  460.71  L  858.36,  486.20  L  875.35,  486.20  L  875.35,  460.71 " style="&st5;" /></a><a ewd:code="A47" ewd:figID="7" ewd:figtype="conn" style="cursor:pointer;"><path d=" M  560.91,  605.18  L  577.90,  605.18  L  577.90,  622.18  L  560.91,  622.18  L  560.91,  605.18 " style="&st5;" /><title ewd:textID="10">Junction Connector</title></a><a ewd:code="A53" ewd:figID="8" ewd:figtype="conn" style="cursor:pointer;"><path d=" M  586.40,  163.26  L  586.40,  180.26  L  603.40,  180.26  L  603.40,  163.26  L  586.40,  163.26 " style="&st5;" /><title ewd:textID="10">Junction Connector</title></a><a ewd:code="H83" ewd:figID="9" ewd:figtype="conn" style="cursor:pointer;"><path d=" M  441.93,  613.68  L  458.92,  613.68  L  458.92,  630.68  L  441.93,  630.68  L  441.93,  613.68 " style="&st5;" /><title ewd:textID="10">Junction Connector</title></a><a ewd:code="A18" ewd:figID="10" ewd:figtype="conn" style="cursor:pointer;"><path d=" M  616.15,  647.68  L  616.15,  605.18  L  641.64,  605.18  L  641.64,  647.68  L  616.15,  647.68 " style="&st5;" /><title ewd:textID="6">Ambient Temperature Sensor (No.1 Cooler Thermistor)</title></a><a ewd:code="H45" ewd:figID="11" ewd:figtype="conn" style="cursor:pointer;"><path d=" M  263.46,  605.18  L  263.46,  647.68  L  390.93,  647.68  L  390.93,  605.18  L  263.46,  605.18 " style="&st5;" /><title ewd:textID="9">Integration Control and Panel Assembly</title></a><a ewd:code="O41" ewd:figID="12" ewd:figtype="conn" style="cursor:pointer;"><path d=" M   50.99,  222.75  L   50.99,  239.75  L  110.48,  239.75  L  110.48,  222.75  L   50.99,  222.75 " style="&st5;" /><title ewd:textID="10">Junction Connector</title></a><a ewd:code="V11,V12" ewd:figID="13" ewd:figtype="conn" style="cursor:pointer;"><path d=" M  917.85,  554.19  L  917.85,  588.19  L  951.84,  588.19  L  951.84,  554.19  L  917.85,  554.19 " style="&st5;" /><title ewd:textID="11">Rear Window Defogger (Back Door Glass)</title></a><a ewd:code="FUSE2" ewd:figID="14" ewd:figtype="rb" style="cursor:pointer;"><path d=" M  794.62,  282.24  L  794.62,  324.73  L  820.11,  324.73  L  820.11,  282.24  L  794.62,  282.24 " style="&st5;" /></a><a ewd:code="1" ewd:figID="15" ewd:figtype="rb" style="cursor:pointer;"><path d=" M  815.86,  460.71  L  798.87,  460.71  L  798.87,  486.20  L  815.86,  486.20  L  815.86,  460.71 " style="&st5;" /></a><a ewd:code="H37" ewd:figID="16" ewd:figtype="conn" style="cursor:pointer;"><path d=" M   42.49,   52.78  L   42.49,   95.27  L  118.98,   95.27  L  118.98,   52.78  L   42.49,   52.78 " style="&st5;" /><title ewd:textID="7">Combination Meter Assembly</title></a><a ewd:code="H24" ewd:figID="17" ewd:figtype="conn" style="cursor:pointer;"><path d=" M  314.45,  452.21  L  314.45,  494.70  L  645.89,  494.70  L  645.89,  452.21  L  314.45,  452.21 " style="&st5;" /><title ewd:textID="4">A/C Amplifier Assembly</title></a><a ewd:code="A27" ewd:figID="18" ewd:figtype="conn" style="cursor:pointer;"><path d=" M  790.37,  163.26  L  790.37,  197.25  L  824.36,  197.25  L  824.36,  163.26  L  790.37,  163.26 " style="&st5;" /><title>ECM</title></a><a ewd:code="H115" ewd:figID="19" ewd:figtype="conn" style="cursor:pointer;"><path d=" M  322.95,  367.22  L  373.94,  367.22  L  373.94,  384.22  L  322.95,  384.22  L  322.95,  367.22 " style="&st5;" /><title ewd:textID="10">Junction Connector</title></a><a ewd:code="DJB" ewd:figID="20" ewd:figtype="jb" style="cursor:pointer;"><path d=" M  407.93,   35.78  L  407.93,  103.77  L  475.92,  103.77  L  475.92,   35.78  L  407.93,   35.78 " style="&st4;" /></a><a ewd:code="DJB" ewd:figID="21" ewd:figtype="jb" style="cursor:pointer;"><path d=" M  552.41,   35.78  L  552.41,  103.77  L  611.90,  103.77  L  611.90,   35.78  L  552.41,   35.78 " style="&st4;" /></a><a ewd:code="FUSE42" ewd:figID="22" ewd:figtype="fuse" style="cursor:pointer;"><path d=" M  624.65,   35.78  L  624.65,   78.27  L  650.14,   78.27  L  650.14,   35.78  L  624.65,   35.78 " style="&st7;" /></a><a ewd:code="FUSE56" ewd:figID="23" ewd:figtype="fuse" style="cursor:pointer;"><path d=" M  412.18,   35.78  L  412.18,   78.27  L  437.68,   78.27  L  437.68,   35.78  L  412.18,   35.78 " style="&st7;" /></a><a ewd:code="FUSE58" ewd:figID="24" ewd:figtype="fuse" style="cursor:pointer;"><path d=" M  582.15,   35.78  L  582.15,   78.27  L  607.65,   78.27  L  607.65,   35.78  L  582.15,   35.78 " style="&st7;" /></a><a ewd:code="FUSE2" ewd:figID="25" ewd:figtype="fuse" style="cursor:pointer;"><path d=" M  794.62,  282.24  L  794.62,  324.73  L  820.11,  324.73  L  820.11,  282.24  L  794.62,  282.24 " style="&st7;" /></a><a ewd:lineID="1" style="cursor:pointer;"><path d=" M   59.49,  358.73  L   59.49,  313.97 " style="stroke:#99D9E8;stroke-width: 5.10 ;&st6;" /></a><a ewd:lineID="2" style="cursor:pointer;"><path d=" M   59.49,  248.81  L   59.49,  299.24 " style="stroke:#00A0C6;stroke-width: 5.10 ;&st6;" /></a><a ewd:lineID="3" style="cursor:pointer;"><path d=" M   59.49,  163.26  L   59.49,  171.76  L   42.49,  188.75  L   25.50,  188.75  L   25.50,  273.74  L   42.49,  273.74  L   59.49,  290.74  L   59.49,  299.24 " style="stroke:#99D9E8;stroke-width: 5.10 ;&st6;" /></a><a ewd:lineID="4" style="cursor:pointer;"><path d=" M   59.49,  163.26  L   59.49,  213.68 " style="stroke:#99D9E8;stroke-width: 5.10 ;&st6;" /></a><a ewd:lineID="5" style="cursor:pointer;"><path d=" M   59.49,  148.53  L   59.49,   95.27 " style="stroke:#99D9E8;stroke-width: 5.10 ;&st6;" /></a><a ewd:lineID="6" style="cursor:pointer;"><path d=" M   84.99,  605.18  L   84.99,  664.67 " style="stroke:#56077D;stroke-width: 5.10 ;&st6;" /></a><a ewd:lineID="7" style="cursor:pointer;"><path d=" M  101.98,  605.18  L  101.98,  664.67 " style="stroke:#7FC97F;stroke-width: 5.10 ;&st6;" /></a><a ewd:lineID="8" style="cursor:pointer;"><path d=" M  101.98,  358.73  L  101.98,  314.25 " style="stroke:#000000;stroke-width: 5.10 ;&st6;" /><path d=" M  101.98,  358.73  L  101.98,  314.25 " style="stroke:#FFFFFF;stroke-width: 4.53 ;&st6;" /></a><a ewd:lineID="9" style="cursor:pointer;"><path d=" M  101.98,  248.81  L  101.98,  299.24 " style="stroke:#000000;stroke-width: 5.10 ;&st6;" /><path d=" M  101.98,  248.81  L  101.98,  299.24 " style="stroke:#FFFFFF;stroke-width: 4.53 ;&st6;" /></a><a ewd:lineID="10" style="cursor:pointer;"><path d=" M  101.98,  163.26  L  101.98,  171.76  L  118.98,  188.75  L  144.48,  188.75  L  144.48,  273.74  L  118.98,  273.74  L  101.98,  290.74  L  101.98,  299.24 " style="stroke:#000000;stroke-width: 5.10 ;&st6;" /><path d=" M  101.98,  163.26  L  101.98,  171.76  L  118.98,  188.75  L  144.48,  188.75  L  144.48,  273.74  L  118.98,  273.74  L  101.98,  290.74  L  101.98,  299.24 " style="stroke:#FFFFFF;stroke-width: 4.53 ;&st6;" /></a><a ewd:lineID="11" style="cursor:pointer;"><path d=" M  101.98,  163.26  L  101.98,  213.68 " style="stroke:#000000;stroke-width: 5.10 ;&st6;" /><path d=" M  101.98,  163.26  L  101.98,  213.68 " style="stroke:#FFFFFF;stroke-width: 4.53 ;&st6;" /></a><a ewd:lineID="12" style="cursor:pointer;"><path d=" M  101.98,  148.24  L  101.98,   95.27 " style="stroke:#000000;stroke-width: 5.10 ;&st6;" /><path d=" M  101.98,  148.24  L  101.98,   95.27 " style="stroke:#FFFFFF;stroke-width: 4.53 ;&st6;" /></a><a ewd:lineID="13" style="cursor:pointer;"><path d=" M  118.98,  605.18  L  118.98,  664.67 " style="stroke:#C3AF96;stroke-width: 5.10 ;&st6;" /></a><a ewd:lineID="14" style="cursor:pointer;"><path d=" M  135.98,  605.18  L  135.98,  664.67 " style="stroke:#008837;stroke-width: 5.10 ;&st6;" /></a><a ewd:lineID="15" style="cursor:pointer;"><path d=" M  152.97,  605.18  L  152.97,  664.67 " style="stroke:#00A0C6;stroke-width: 5.10 ;&st6;" /></a><a ewd:lineID="16" style="cursor:pointer;"><path d=" M  169.97,  605.18  L  169.97,  664.67 " style="stroke:#F668B2;stroke-width: 5.10 ;&st6;" /></a><a ewd:lineID="17" style="cursor:pointer;"><path d=" M  169.97,  460.71  L  169.97,  562.69 " style="stroke:#000000;stroke-width: 5.10 ;&st6;" /></a><a ewd:lineID="18" style="cursor:pointer;"><path d=" M  169.97,  384.22  L  169.97,  445.98 " style="stroke:#000000;stroke-width: 5.10 ;&st6;" /></a><a ewd:lineID="19" style="cursor:pointer;"><path d=" M  365.44,  367.22  L  365.44,  273.74  L  169.97,  273.74  L  169.97,  358.73 " style="stroke:#FF0000;stroke-width: 5.10 ;&st6;" /></a><a ewd:lineID="20" style="cursor:pointer;"><path d=" M  186.97,  605.18  L  186.97,  664.67 " style="stroke:#000000;stroke-width: 5.10 ;&st6;" /></a><a ewd:lineID="21" style="cursor:pointer;"><path d=" M  203.97,  605.18  L  203.97,  664.67 " style="stroke:#000000;stroke-width: 5.10 ;&st6;" /><path d=" M  203.97,  605.18  L  203.97,  664.67 " style="stroke:#FFFFFF;stroke-width: 4.53 ;&st6;" /></a><a ewd:lineID="22" style="cursor:pointer;"><path d=" M  203.97,  460.71  L  203.97,  562.69 " style="stroke:#000000;stroke-width: 5.10 ;&st6;" /><path d=" M  203.97,  460.71  L  203.97,  562.69 " style="stroke:#FFFFFF;stroke-width: 4.53 ;&st6;" /></a><a ewd:lineID="23" style="cursor:pointer;"><path d=" M  203.97,  384.22  L  203.97,  445.69 " style="stroke:#000000;stroke-width: 5.10 ;&st6;" /><path d=" M  203.97,  384.22  L  203.97,  445.69 " style="stroke:#FFFFFF;stroke-width: 4.53 ;&st6;" /></a><a ewd:lineID="24" style="cursor:pointer;"><path d=" M  331.44,  367.22  L  331.44,  290.74  L  203.97,  290.74  L  203.97,  358.73 " style="stroke:#000000;stroke-width: 5.10 ;&st6;" /><path d=" M  331.44,  367.22  L  331.44,  290.74  L  203.97,  290.74  L  203.97,  358.73 " style="stroke:#FFFFFF;stroke-width: 4.53 ;&st6;" /></a><a ewd:lineID="25" style="cursor:pointer;"><path d=" M  416.43,  231.25  L  280.45,  231.25  L  280.45,  605.18 " style="stroke:#F668B2;stroke-width: 5.10 ;&st6;" /></a><a ewd:lineID="26" style="cursor:pointer;"><path d=" M  331.44,  503.77  L  331.44,  605.18 " style="stroke:#99D9E8;stroke-width: 5.10 ;&st6;" /></a><a ewd:lineID="27" style="cursor:pointer;"><path d=" M  331.44,  443.14  L  331.44,  384.22 " style="stroke:#000000;stroke-width: 5.10 ;&st6;" /><path d=" M  331.44,  443.14  L  331.44,  384.22 " style="stroke:#FFFFFF;stroke-width: 4.53 ;&st6;" /></a><a ewd:lineID="28" style="cursor:pointer;"><path d=" M  365.44,  443.14  L  365.44,  384.22 " style="stroke:#000000;stroke-width: 5.10 ;&st6;" /></a><a ewd:lineID="29" style="cursor:pointer;"><path d=" M  441.93,  554.19  L  373.94,  554.19  L  373.94,  605.18 " style="stroke:#000000;stroke-width: 5.10 ;&st6;" /><path d=" M  441.93,  554.19  L  373.94,  554.19  L  373.94,  605.18 " style="stroke:#FFFFFF;stroke-width: 4.53 ;&st6;" /><path d=" M  441.93,  554.19  L  373.94,  554.19  L  373.94,  605.18 " style="stroke:#000000;stroke-width: 1.13 ;&st6;" /></a><a ewd:lineID="30" style="cursor:pointer;"><path d=" M  424.93,  239.75  L  424.93,  443.14 " style="stroke:#F668B2;stroke-width: 5.10 ;&st6;" /></a><a ewd:lineID="31" style="cursor:pointer;"><path d=" M  424.93,  103.77  L  424.93,  222.75 " style="stroke:#F668B2;stroke-width: 5.10 ;&st6;" /></a><a ewd:lineID="32" style="cursor:pointer;"><path d=" M  450.42,  630.68  L  450.42,  681.67 " style="stroke:#000000;stroke-width: 5.10 ;&st6;" /><path d=" M  450.42,  630.68  L  450.42,  681.67 " style="stroke:#FFFFFF;stroke-width: 4.53 ;&st6;" /><path d=" M  450.42,  630.68  L  450.42,  681.67 " style="stroke:#000000;stroke-width: 1.13 ;&st6;" /></a><a ewd:lineID="33" style="cursor:pointer;"><path d=" M  450.42,  562.69  L  450.42,  613.68 " style="stroke:#000000;stroke-width: 5.10 ;&st6;" /><path d=" M  450.42,  562.69  L  450.42,  613.68 " style="stroke:#FFFFFF;stroke-width: 4.53 ;&st6;" /><path d=" M  450.42,  562.69  L  450.42,  613.68 " style="stroke:#000000;stroke-width: 1.13 ;&st6;" /></a><a ewd:lineID="34" style="cursor:pointer;"><path d=" M  450.42,  503.77  L  450.42,  545.69 " style="stroke:#000000;stroke-width: 5.10 ;&st6;" /><path d=" M  450.42,  503.77  L  450.42,  545.69 " style="stroke:#FFFFFF;stroke-width: 4.53 ;&st6;" /><path d=" M  450.42,  503.77  L  450.42,  545.69 " style="stroke:#000000;stroke-width: 1.13 ;&st6;" /></a><a ewd:lineID="35" style="cursor:pointer;"><path d=" M  628.89,  647.68  L  628.89,  690.17  L  569.40,  690.17  L  569.40,  622.18 " style="stroke:#FF0000;stroke-width: 5.10 ;&st6;" /></a><a ewd:lineID="36" style="cursor:pointer;"><path d=" M  569.40,  605.18  L  569.40,  554.19 " style="stroke:#FFE600;stroke-width: 5.10 ;&st6;" /></a><a ewd:lineID="37" style="cursor:pointer;"><path d=" M  569.40,  503.77  L  569.40,  539.46 " style="stroke:#008837;stroke-width: 5.10 ;&st6;" /></a><a ewd:lineID="38" style="cursor:pointer;"><path d=" M  594.90,  407.45  L  594.90,  443.14 " style="stroke:#FF0000;stroke-width: 5.10 ;&st6;" /></a><a ewd:lineID="39" style="cursor:pointer;"><path d=" M  594.90,  358.73  L  594.90,  392.72 " style="stroke:#008837;stroke-width: 5.10 ;&st6;" /></a><a ewd:lineID="40" style="cursor:pointer;"><path d=" M  594.90,  189.32  L  594.90,  239.75 " style="stroke:#7FC97F;stroke-width: 5.10 ;&st6;" /></a><a ewd:lineID="41" style="cursor:pointer;"><path d=" M  594.90,  103.77  L  594.90,  154.19 " style="stroke:#008837;stroke-width: 5.10 ;&st6;" /></a><a ewd:lineID="42" style="cursor:pointer;"><path d=" M  620.40,  358.73  L  620.40,  392.72  L  798.87,  392.72 " style="stroke:#000000;stroke-width: 5.10 ;&st6;" /></a><a ewd:lineID="43" style="cursor:pointer;"><path d=" M  637.39,  103.77  L  637.39,  197.25  L  620.40,  197.25  L  620.40,  239.75 " style="stroke:#000000;stroke-width: 5.10 ;&st6;" /><path d=" M  637.39,  103.77  L  637.39,  197.25  L  620.40,  197.25  L  620.40,  239.75 " style="stroke:#FFFFFF;stroke-width: 4.53 ;&st6;" /></a><a ewd:lineID="44" style="cursor:pointer;"><path d=" M  628.89,  554.19  L  628.89,  605.18 " style="stroke:#56077D;stroke-width: 5.10 ;&st6;" /></a><a ewd:lineID="45" style="cursor:pointer;"><path d=" M  628.89,  503.77  L  628.89,  539.46 " style="stroke:#56077D;stroke-width: 5.10 ;&st6;" /></a><a ewd:lineID="46" style="cursor:pointer;"><path d=" M  637.39,  103.77  L  637.39,  112.27  L  654.39,  129.26  L  866.86,  129.26  L  866.86,  435.21 " style="stroke:#000000;stroke-width: 5.10 ;&st6;" /><path d=" M  637.39,  103.77  L  637.39,  112.27  L  654.39,  129.26  L  866.86,  129.26  L  866.86,  435.21 " style="stroke:#FFFFFF;stroke-width: 4.53 ;&st6;" /></a><a ewd:lineID="47" style="cursor:pointer;"><path d=" M  747.88,  571.19  L  747.88,  681.67 " style="stroke:#000000;stroke-width: 5.10 ;&st6;" /><path d=" M  747.88,  571.19  L  747.88,  681.67 " style="stroke:#FFFFFF;stroke-width: 4.53 ;&st6;" /><path d=" M  747.88,  571.19  L  747.88,  681.67 " style="stroke:#000000;stroke-width: 1.13 ;&st6;" /></a><a ewd:lineID="48" style="cursor:pointer;"><path d=" M  747.88,  358.73  L  747.88,  554.19 " style="stroke:#000000;stroke-width: 5.10 ;&st6;" /><path d=" M  747.88,  358.73  L  747.88,  554.19 " style="stroke:#FFFFFF;stroke-width: 4.53 ;&st6;" /><path d=" M  747.88,  358.73  L  747.88,  554.19 " style="stroke:#000000;stroke-width: 1.13 ;&st6;" /></a><a ewd:lineID="49" style="cursor:pointer;"><path d=" M  807.37,  511.70  L  807.37,  554.19 " style="stroke:#000000;stroke-width: 5.10 ;&st6;" /><path d=" M  807.37,  511.70  L  807.37,  554.19 " style="stroke:#FFFFFF;stroke-width: 4.53 ;&st6;" /><path d=" M  807.37,  511.70  L  807.37,  554.19 " style="stroke:#000000;stroke-width: 1.13 ;&st6;" /></a><a ewd:lineID="50" style="cursor:pointer;"><path d=" M  807.37,  401.22  L  807.37,  435.21 " style="stroke:#000000;stroke-width: 5.10 ;&st6;" /></a><a ewd:lineID="51" style="cursor:pointer;"><path d=" M  807.37,  358.73  L  807.37,  384.22 " style="stroke:#000000;stroke-width: 5.10 ;&st6;" /></a><a ewd:lineID="52" style="cursor:pointer;"><path d=" M  807.37,  206.32  L  807.37,  239.75 " style="stroke:#000000;stroke-width: 5.10 ;&st6;" /></a><a ewd:lineID="53" style="cursor:pointer;"><path d=" M  815.86,  392.72  L  934.84,  392.72  L  934.84,  443.71 " style="stroke:#000000;stroke-width: 5.10 ;&st6;" /></a><a ewd:lineID="54" style="cursor:pointer;"><path d=" M  866.86,  511.70  L  866.86,  554.19 " style="stroke:#000000;stroke-width: 5.10 ;&st6;" /><path d=" M  866.86,  511.70  L  866.86,  554.19 " style="stroke:#FFFFFF;stroke-width: 4.53 ;&st6;" /><path d=" M  866.86,  511.70  L  866.86,  554.19 " style="stroke:#000000;stroke-width: 1.13 ;&st6;" /></a><a ewd:lineID="55" style="cursor:pointer;"><path d=" M  934.84,  645.41  L  934.84,  681.67 " style="stroke:#000000;stroke-width: 5.10 ;&st6;" /><path d=" M  934.84,  645.41  L  934.84,  681.67 " style="stroke:#FFFFFF;stroke-width: 4.53 ;&st6;" /><path d=" M  934.84,  645.41  L  934.84,  681.67 " style="stroke:#000000;stroke-width: 1.13 ;&st6;" /></a><a ewd:lineID="56" style="cursor:pointer;"><path d=" M  934.84,  597.25  L  934.84,  630.68 " style="stroke:#000000;stroke-width: 5.10 ;&st6;" /><path d=" M  934.84,  597.25  L  934.84,  630.68 " style="stroke:#FFFFFF;stroke-width: 4.53 ;&st6;" /><path d=" M  934.84,  597.25  L  934.84,  630.68 " style="stroke:#000000;stroke-width: 1.13 ;&st6;" /></a><a ewd:lineID="57" style="cursor:pointer;"><path d=" M  934.84,  511.70  L  934.84,  545.13 " style="stroke:#000000;stroke-width: 5.10 ;&st6;" /></a><a ewd:lineID="58" style="cursor:pointer;"><path d=" M  934.84,  458.44  L  934.84,  496.97 " style="stroke:#000000;stroke-width: 5.10 ;&st6;" /></a><a ewd:code="AH9" ewd:figID="26" ewd:figtype="w2w" ewd:pinNo="3" style="cursor:pointer;"><path d=" M  603.40,  392.72  L  586.40,  392.72  L  586.40,  401.22  L  603.40,  401.22  L  603.40,  392.72 " style="&st2;" /><text style="&st8;" transform="matrix(&st16;  587.76  399.46 )"><tspan style="&st18;" x="0" y="0">AH9</tspan></text></a><a ewd:code="AO2" ewd:figID="27" ewd:figtype="w2w" ewd:pinNo="7" style="cursor:pointer;"><path d=" M  943.34,  443.71  L  926.35,  443.71  L  926.35,  452.21  L  943.34,  452.21  L  943.34,  443.71 " style="&st2;" /><text style="&st8;" transform="matrix(&st16;  927.41  450.45 )"><tspan style="&st18;" x="0" y="0">AO2</tspan></text></a><a ewd:code="AH10" ewd:figID="28" ewd:figtype="w2w" ewd:pinNo="14" style="cursor:pointer;"><path d=" M  212.46,  452.21  L  195.47,  452.21  L  195.47,  460.71  L  212.46,  460.71  L  212.46,  452.21 " style="&st2;" /><text style="&st8;" transform="matrix(&st16;  195.15  458.95 )"><tspan style="&st18;" x="0" y="0">AH10</tspan></text></a><a ewd:code="AH10" ewd:figID="29" ewd:figtype="w2w" ewd:pinNo="3" style="cursor:pointer;"><path d=" M  178.47,  452.21  L  161.47,  452.21  L  161.47,  460.71  L  178.47,  460.71  L  178.47,  452.21 " style="&st2;" /><text style="&st8;" transform="matrix(&st16;  161.16  458.95 )"><tspan style="&st18;" x="0" y="0">AH10</tspan></text></a><a ewd:code="AH3" ewd:figID="30" ewd:figtype="w2w" ewd:pinNo="11" style="cursor:pointer;"><path d=" M  637.39,  545.69  L  620.40,  545.69  L  620.40,  554.19  L  637.39,  554.19  L  637.39,  545.69 " style="&st2;" /><text style="&st8;" transform="matrix(&st16;  621.76  552.44 )"><tspan style="&st18;" x="0" y="0">AH3</tspan></text></a><a ewd:code="AH9" ewd:figID="31" ewd:figtype="w2w" ewd:pinNo="4" style="cursor:pointer;"><path d=" M  577.90,  545.69  L  560.91,  545.69  L  560.91,  554.19  L  577.90,  554.19  L  577.90,  545.69 " style="&st2;" /><text style="&st8;" transform="matrix(&st16;  562.27  552.44 )"><tspan style="&st18;" x="0" y="0">AH9</tspan></text></a><a ewd:code="VO1" ewd:figID="32" ewd:figtype="w2w" ewd:pinNo="1" style="cursor:pointer;"><path d=" M  943.34,  503.20  L  926.35,  503.20  L  926.35,  511.70  L  943.34,  511.70  L  943.34,  503.20 " style="&st2;" /><text style="&st8;" transform="matrix(&st16;  927.82  509.94 )"><tspan style="&st18;" x="0" y="0">VO1</tspan></text></a><a ewd:code="VO2" ewd:figID="33" ewd:figtype="w2w" ewd:pinNo="8" style="cursor:pointer;"><path d=" M  943.34,  630.68  L  926.35,  630.68  L  926.35,  639.18  L  943.34,  639.18  L  943.34,  630.68 " style="&st2;" /><text style="&st8;" transform="matrix(&st16;  927.41  637.42 )"><tspan style="&st18;" x="0" y="0">VO2</tspan></text></a><a ewd:code="OH3" ewd:figID="34" ewd:figtype="w2w" ewd:pinNo="7" style="cursor:pointer;"><path d=" M   67.99,  299.24  L   50.99,  299.24  L   50.99,  307.73  L   67.99,  307.73  L   67.99,  299.24 " style="&st2;" /><text style="&st8;" transform="matrix(&st16;  51.91  305.98 )"><tspan style="&st18;" x="0" y="0">OH3</tspan></text></a><a ewd:code="OH3" ewd:figID="35" ewd:figtype="w2w" ewd:pinNo="6" style="cursor:pointer;"><path d=" M  110.48,  299.24  L   93.48,  299.24  L   93.48,  307.73  L  110.48,  307.73  L  110.48,  299.24 " style="&st2;" /><text style="&st8;" transform="matrix(&st16;  94.4  305.98 )"><tspan style="&st18;" x="0" y="0">OH3</tspan></text></a><a ewd:code="OH3" ewd:figID="36" ewd:figtype="w2w" ewd:pinNo="15" style="cursor:pointer;"><path d=" M  110.48,  154.76  L   93.48,  154.76  L   93.48,  163.26  L  110.48,  163.26  L  110.48,  154.76 " style="&st2;" /><text style="&st8;" transform="matrix(&st16;  94.4  161.5 )"><tspan style="&st18;" x="0" y="0">OH3</tspan></text></a><a ewd:code="OH3" ewd:figID="37" ewd:figtype="w2w" ewd:pinNo="16" style="cursor:pointer;"><path d=" M   67.99,  154.76  L   50.99,  154.76  L   50.99,  163.26  L   67.99,  163.26  L   67.99,  154.76 " style="&st2;" /><text style="&st8;" transform="matrix(&st16;  51.91  161.5 )"><tspan style="&st18;" x="0" y="0">OH3</tspan></text></a><a ewd:code="H3" ewd:figID="38" ewd:figtype="gp" style="cursor:pointer;"><path d=" M  439.80,  681.67  L  461.05,  681.67  L  450.42,  697.25  L  439.80,  681.67 " style="&st2;" /><text style="&st8;" transform="matrix(&st16;  445.74  689.83 )"><tspan style="&st18;" x="0" y="0">H3</tspan></text></a><a ewd:code="O1" ewd:figID="39" ewd:figtype="gp" style="cursor:pointer;"><path d=" M  924.22,  681.67  L  945.47,  681.67  L  934.84,  697.25  L  924.22,  681.67 " style="&st2;" /><text style="&st8;" transform="matrix(&st16;  930.27  689.83 )"><tspan style="&st18;" x="0" y="0">O1</tspan></text></a><a ewd:code="A2" ewd:figID="40" ewd:figtype="gp" style="cursor:pointer;"><path d=" M  737.25,  681.67  L  758.50,  681.67  L  747.88,  697.25  L  737.25,  681.67 " style="&st2;" /><text style="&st8;" transform="matrix(&st16;  743.34  689.83 )"><tspan style="&st18;" x="0" y="0">A2</tspan></text></a><a ewd:code="7957" ewd:figID="41" ewd:figtype="sp" style="cursor:pointer;"><path d=" M  803.12,  384.22  L  811.61,  384.22  L  815.86,  388.47  L  815.86,  396.97  L  811.61,  401.22  L  803.12,  401.22  L  798.87,  396.97  L  798.87,  388.47  L  803.12,  384.22 " style="&st2;" /></a><a ewd:code="8305" ewd:figID="42" ewd:figtype="sp" style="cursor:pointer;"><path d=" M  446.18,  545.69  L  454.67,  545.69  L  458.92,  549.94  L  458.92,  558.44  L  454.67,  562.69  L  446.18,  562.69  L  441.93,  558.44  L  441.93,  549.94  L  446.18,  545.69 " style="&st2;" /></a><a ewd:code="8365" ewd:figID="43" ewd:figtype="sp" style="cursor:pointer;"><path d=" M  420.68,  222.75  L  429.18,  222.75  L  433.43,  227.00  L  433.43,  235.50  L  429.18,  239.75  L  420.68,  239.75  L  416.43,  235.50  L  416.43,  227.00  L  420.68,  222.75 " style="&st2;" /></a></g></svg>