﻿<?xml version="1.0" encoding="utf-8"?>
<!DOCTYPE svg PUBLIC "-//W3C//DTD SVG 1.0//EN" "http://www.w3.org/TR/2001/REC-SVG-20010904/DTD/svg10.dtd"[
	<!ENTITY ns_flows "http://ns.adobe.com/Flows/1.0/">
	<!ENTITY ns_svg "http://www.w3.org/2000/svg">
	<!ENTITY ns_xlink "http://www.w3.org/1999/xlink">
	<!ENTITY st0 "font-size:7px;font-family:'MS-PGothic';adobe-font-script:japanese;">
	<!ENTITY st1 "font-size:6px;font-family:'ArialMT';">
	<!-- White fill  -->
	<!ENTITY st2 "fill:#FFFFFF;stroke:#000000; stroke-width:1.41;stroke-linecap:round;stroke-linejoin:round;">
	<!-- Yellow fill  -->
	<!ENTITY st3 "fill:#FFFFCC;stroke:#FFFFCC; stroke-width:0.1;stroke-linecap:round;stroke-linejoin:round;">
	<!-- Gray fill  -->
	<!ENTITY st4 "fill:#CCCCCC;stroke:#CCCCCC; stroke-width:0.1;stroke-linecap:round;stroke-linejoin:round;">
	<!-- Light-blue fill -->
	<!ENTITY st5 "fill:#CCECF4;stroke:#000000; stroke-width:1.133;stroke-linecap:round;stroke-linejoin:round;">
	<!ENTITY st6 "fill:none;stroke-linecap:butt; stroke-linejoin:round;">
	<!ENTITY st7 "fill:none;stroke:#000000;stroke-linecap:round;stroke-linejoin:round;">
	<!ENTITY st8 "enable-background:new    ;">
	<!-- Black fill -->
	<!ENTITY st9 "fill:#000000;stroke:#000000; stroke-linecap:round;stroke-linejoin:round;">
	<!-- SRS note   -->
	<!ENTITY st10 "font-size:9px;font-family:'ArialMT';">
	<!ENTITY st11 "font-size:9px;font-family:'Svg Symbol';">
	<!ENTITY st12 "font-size:6px;font-family:'Svg Symbol';">
	<!ENTITY st13 "fill:none;stroke:#ff0000;stroke-linecap:round;stroke-linejoin:round;">
	<!-- Yellow fill  -->
	<!ENTITY st14 "fill:#FFFF00;stroke:#FFFF00; stroke-width:0.1;stroke-linecap:round;stroke-linejoin:round;">
	<!ENTITY st15 "font-size:6px;font-family:'MS-PGothic';adobe-font-script:japanese;">
	<!ENTITY st16 "1.00 0.00 0.00 1.00">
	<!ENTITY st17 "0.00 -1.00 1.00 0.00">
	<!ENTITY st18 "font-size:6px;font-family:'Arial';">
	<!ENTITY st19 "font-size:9px;font-family:'Arial';">
	<!ENTITY st20 "font-size:6px;font-family:'MS-PGothic','MS PGothic';adobe-font-script:japanese;">
	<!ENTITY st21 "font-size:7px;font-family:'MS-PGothic','MS PGothic';adobe-font-script:japanese;">
	<!ATTLIST svg
		xmlns:ewd CDATA #FIXED "http://shcl.co.jp/ewd"
		xmlns:a CDATA #FIXED "http://ns.adobe.com/AdobeSVGViewerExtensions/3.0/"
		ewd:ver CDATA #IMPLIED
	>
	<!ATTLIST a
		ewd:lineID CDATA #IMPLIED
		ewd:groupID CDATA #IMPLIED
		ewd:figtype CDATA #IMPLIED
		ewd:code CDATA #IMPLIED
		ewd:figID CDATA #IMPLIED
		ewd:pinNo CDATA #IMPLIED
		ewd:comment CDATA #IMPLIED >
	<!ATTLIST g
		ewd:lineID CDATA #IMPLIED
		ewd:groupID CDATA #IMPLIED
		ewd:figtype CDATA #IMPLIED
		ewd:code CDATA #IMPLIED
		ewd:figID CDATA #IMPLIED
		ewd:pinNo CDATA #IMPLIED
		ewd:comment CDATA #IMPLIED >
	<!ATTLIST text
		ewd:textID CDATA #IMPLIED >
	<!ATTLIST title
		ewd:textID CDATA #IMPLIED >
]>
<!-- Generator: Shintec Hozumi YS   -->
<svg onload="call_execInitLoadProc_svg('system')" style="overflow:visible;  enable-background:new 0 0 513.287 710.000" viewBox="0 0 513.287 710.000" height="710.000" width="513.287" xml:space="preserve" ewd:ver="L2.1.2.8" xmlns="&ns_svg;" xmlns:a="http://ns.adobe.com/AdobeSVGViewerExtensions/3.0/" xmlns:ewd="http://shcl.co.jp/ewd" xmlns:xlink="&ns_xlink;"><script type="text/javascript" xlink:href="../../../../../system/js/ewd/fig/svgfig.js" xmlns:xlink="http://www.w3.org/1999/xlink" /><defs><font horiz-adv-x="1229"><font-face font-family="Svg Symbol" units-per-em="2048" panose-1="5 5 1 2 1 7 6 2 5 7" ascent="2059" descent="450" alphabetic="0" /><missing-glyph d="M 103,0 l 0,1280 1024,0 0,-1280 -1024,0 z m 32,32 l 960,0 0,1216 -960,0 0,-1216 z" /><glyph unicode="" horiz-adv-x="1573" d="M 1517,0 l -567,0 24,279 q 141,59 207.5,168 66.5,109 66.5,306    0,272 -132.5,417.5 -132.5,145.5 -333.5,145.5 -194,0 -328,-147.5 -134,-147.5 -134,-401.5 0,-200 68.5,-319 68.5,-119     206.5,-169 l 25,-279 -564,0 0,279 35,0 q 3,-61 32,-83 45,-35 137,-35 l 270,0 0,70 q -210,61 -324.5,209 -114.5,148     -114.5,349 0,252 186.5,425 186.5,173 504.5,173 195,0 358.5,-73.5 163.5,-73.5 252,-214.5 88.5,-141 88.5,-310 0,-207     -121.5,-360.5 -121.5,-153.5 -317.5,-197.5 l -8,-70 275,0 q 92,0 128,28 36,28 42,90 l 38,0 0,-279 z" /></font></defs>
<g id="ewd_top"><a ewd:code="H40" ewd:figID="1" ewd:figtype="conn" style="cursor:pointer;"><path d=" M    8.50,  222.75  L    8.50,  273.74  L  246.46,  273.74  L  246.46,  222.75  L    8.50,  222.75 " style="&st5;" /><title ewd:textID="9">Tire Pressure Warning ECU</title></a><a ewd:code="H77,H78" ewd:figID="2" ewd:figtype="conn" style="cursor:pointer;"><path d=" M   17.00,  146.26  L   17.00,  171.76  L   33.99,  171.76  L   33.99,  146.26  L   17.00,  146.26 " style="&st5;" /><title ewd:textID="4">Junction Connector</title></a><a ewd:code="H118" ewd:figID="3" ewd:figtype="conn" style="cursor:pointer;"><path d=" M  169.97,  137.76  L  169.97,  154.76  L  237.96,  154.76  L  237.96,  137.76  L  169.97,  137.76 " style="&st5;" /><title ewd:textID="4">Junction Connector</title></a><a ewd:code="FUSE9" ewd:figID="4" ewd:figtype="rb" style="cursor:pointer;"><path d=" M  446.18,   35.78  L  446.18,   78.27  L  471.67,   78.27  L  471.67,   35.78  L  446.18,   35.78 " style="&st5;" /></a><a ewd:code="H77,H78" ewd:figID="5" ewd:figtype="conn" style="cursor:pointer;"><path d=" M  322.95,  452.21  L  322.95,  477.71  L  339.94,  477.71  L  339.94,  452.21  L  322.95,  452.21 " style="&st5;" /><title ewd:textID="4">Junction Connector</title></a><a ewd:code="A19" ewd:figID="6" ewd:figtype="conn" style="cursor:pointer;"><path d=" M  169.97,  596.69  L  169.97,  630.68  L  407.93,  630.68  L  407.93,  596.69  L  169.97,  596.69 " style="&st5;" /><title ewd:textID="2">ABS and Traction Actuator Assembly</title></a><a ewd:code="H19" ewd:figID="7" ewd:figtype="conn" style="cursor:pointer;"><path d=" M  161.47,   52.78  L  161.47,   86.77  L  246.46,   86.77  L  246.46,   52.78  L  161.47,   52.78 " style="&st5;" /><title>DLC3</title></a><a ewd:code="H52" ewd:figID="8" ewd:figtype="conn" style="cursor:pointer;"><path d=" M  144.48,  384.22  L  144.48,  350.23  L  127.48,  350.23  L  127.48,  384.22  L  144.48,  384.22 " style="&st5;" /><title ewd:textID="10">Tire Pressure Warning Reset Switch</title></a><a ewd:code="H37" ewd:figID="9" ewd:figtype="conn" style="cursor:pointer;"><path d=" M  271.95,  188.75  L  271.95,  401.22  L  484.42,  401.22  L  484.42,  188.75  L  271.95,  188.75 " style="&st5;" /><title ewd:textID="3">Combination Meter Assembly</title></a><a ewd:code="FUSE3" ewd:figID="10" ewd:figtype="rb" style="cursor:pointer;"><path d=" M  378.19,   35.78  L  378.19,   78.27  L  403.68,   78.27  L  403.68,   35.78  L  378.19,   35.78 " style="&st5;" /></a><a ewd:code="O14" ewd:figID="11" ewd:figtype="conn" style="cursor:pointer;"><path d=" M    8.50,  409.72  L    8.50,  443.71  L  110.48,  443.71  L  110.48,  409.72  L    8.50,  409.72 " style="&st5;" /><title ewd:textID="8">Tire Pressure Warning Antenna and Receiver</title></a><a ewd:code="H85" ewd:figID="12" ewd:figtype="conn" style="cursor:pointer;"><path d=" M  424.93,  520.20  L  492.92,  520.20  L  492.92,  537.20  L  424.93,  537.20  L  424.93,  520.20 " style="&st5;" /><title ewd:textID="4">Junction Connector</title></a><a ewd:code="DJB" ewd:figID="13" ewd:figtype="jb" style="cursor:pointer;"><path d=" M    8.50,   35.78  L    8.50,  103.77  L   67.99,  103.77  L   67.99,   35.78  L    8.50,   35.78 " style="&st4;" /></a><a ewd:code="FUSE3" ewd:figID="14" ewd:figtype="fuse" style="cursor:pointer;"><path d=" M  378.19,   35.78  L  378.19,   78.27  L  403.68,   78.27  L  403.68,   35.78  L  378.19,   35.78 " style="&st7;" /></a><a ewd:code="FUSE56" ewd:figID="15" ewd:figtype="fuse" style="cursor:pointer;"><path d=" M   38.24,   78.27  L   38.24,   35.78  L   12.75,   35.78  L   12.75,   78.27  L   38.24,   78.27 " style="&st7;" /></a><a ewd:code="FUSE9" ewd:figID="16" ewd:figtype="fuse" style="cursor:pointer;"><path d=" M  446.18,   35.78  L  446.18,   78.27  L  471.67,   78.27  L  471.67,   35.78  L  446.18,   35.78 " style="&st7;" /></a><a ewd:lineID="1" style="cursor:pointer;"><path d=" M   25.50,  341.73  L   25.50,  409.72 " style="stroke:#999999;stroke-width: 5.10 ;&st6;" /></a><a ewd:lineID="2" style="cursor:pointer;"><path d=" M   25.50,  327.00  L   25.50,  273.74 " style="stroke:#F668B2;stroke-width: 5.10 ;&st6;" /></a><a ewd:lineID="3" style="cursor:pointer;"><path d=" M   25.50,  180.82  L   25.50,  222.75 " style="stroke:#FFE600;stroke-width: 5.10 ;&st6;" /></a><a ewd:lineID="4" style="cursor:pointer;"><path d=" M   25.50,  103.77  L   25.50,  137.20 " style="stroke:#F668B2;stroke-width: 5.10 ;&st6;" /></a><a ewd:lineID="5" style="cursor:pointer;"><path d=" M   59.49,  341.73  L   59.49,  409.72 " style="stroke:#008837;stroke-width: 5.10 ;&st6;" /></a><a ewd:lineID="6" style="cursor:pointer;"><path d=" M   59.49,  327.00  L   59.49,  273.74 " style="stroke:#008837;stroke-width: 5.10 ;&st6;" /></a><a ewd:lineID="7" style="cursor:pointer;"><path d=" M   93.48,  341.73  L   93.48,  409.72 " style="stroke:#00A0C6;stroke-width: 5.10 ;&st6;" /></a><a ewd:lineID="8" style="cursor:pointer;"><path d=" M   93.48,  327.00  L   93.48,  273.74 " style="stroke:#FFE600;stroke-width: 5.10 ;&st6;" /></a><a ewd:lineID="9" style="cursor:pointer;"><path d=" M  135.98,  452.21  L  135.98,  681.67  L  433.43,  681.67  L  433.43,  537.20 " style="stroke:#000000;stroke-width: 5.10 ;&st6;" /><path d=" M  135.98,  452.21  L  135.98,  681.67  L  433.43,  681.67  L  433.43,  537.20 " style="stroke:#FFFFFF;stroke-width: 4.53 ;&st6;" /><path d=" M  135.98,  452.21  L  135.98,  681.67  L  433.43,  681.67  L  433.43,  537.20 " style="stroke:#000000;stroke-width: 1.13 ;&st6;" /></a><a ewd:lineID="10" style="cursor:pointer;"><path d=" M  135.98,  384.22  L  135.98,  435.21 " style="stroke:#000000;stroke-width: 5.10 ;&st6;" /><path d=" M  135.98,  384.22  L  135.98,  435.21 " style="stroke:#FFFFFF;stroke-width: 4.53 ;&st6;" /><path d=" M  135.98,  384.22  L  135.98,  435.21 " style="stroke:#000000;stroke-width: 1.13 ;&st6;" /></a><a ewd:lineID="11" style="cursor:pointer;"><path d=" M  135.98,  273.74  L  135.98,  350.23 " style="stroke:#000000;stroke-width: 5.10 ;&st6;" /></a><a ewd:lineID="12" style="cursor:pointer;"><path d=" M  178.47,  273.74  L  178.47,  443.71  L  144.48,  443.71 " style="stroke:#000000;stroke-width: 5.10 ;&st6;" /><path d=" M  178.47,  273.74  L  178.47,  443.71  L  144.48,  443.71 " style="stroke:#FFFFFF;stroke-width: 4.53 ;&st6;" /><path d=" M  178.47,  273.74  L  178.47,  443.71  L  144.48,  443.71 " style="stroke:#000000;stroke-width: 1.13 ;&st6;" /></a><a ewd:lineID="13" style="cursor:pointer;"><path d=" M  178.47,  222.75  L  178.47,  154.76 " style="stroke:#000000;stroke-width: 5.10 ;&st6;" /><path d=" M  178.47,  222.75  L  178.47,  154.76 " style="stroke:#FFFFFF;stroke-width: 4.53 ;&st6;" /></a><a ewd:lineID="14" style="cursor:pointer;"><path d=" M  178.47,  137.76  L  178.47,   86.77 " style="stroke:#99D9E8;stroke-width: 5.10 ;&st6;" /></a><a ewd:lineID="15" style="cursor:pointer;"><path d=" M  186.97,  596.69  L  186.97,  554.19 " style="stroke:#56077D;stroke-width: 5.10 ;&st6;" /></a><a ewd:lineID="16" style="cursor:pointer;"><path d=" M  203.97,  273.74  L  203.97,  503.20  L  331.44,  503.20  L  331.44,  486.77 " style="stroke:#56077D;stroke-width: 5.10 ;&st6;" /></a><a ewd:lineID="17" style="cursor:pointer;"><path d=" M  212.46,  596.69  L  212.46,  554.19 " style="stroke:#7FC97F;stroke-width: 5.10 ;&st6;" /></a><a ewd:lineID="18" style="cursor:pointer;"><path d=" M  229.46,  273.74  L  229.46,  477.71  L  297.45,  477.71  L  297.45,  401.22 " style="stroke:#7FC97F;stroke-width: 5.10 ;&st6;" /></a><a ewd:lineID="19" style="cursor:pointer;"><path d=" M  229.46,  222.75  L  229.46,  154.76 " style="stroke:#00A0C6;stroke-width: 5.10 ;&st6;" /></a><a ewd:lineID="20" style="cursor:pointer;"><path d=" M  229.46,  137.76  L  229.46,   86.77 " style="stroke:#C3AF96;stroke-width: 5.10 ;&st6;" /></a><a ewd:lineID="21" style="cursor:pointer;"><path d=" M  237.96,  596.69  L  237.96,  554.19 " style="stroke:#C3AF96;stroke-width: 5.10 ;&st6;" /></a><a ewd:lineID="22" style="cursor:pointer;"><path d=" M  263.46,  596.69  L  263.46,  554.19 " style="stroke:#008837;stroke-width: 5.10 ;&st6;" /></a><a ewd:lineID="23" style="cursor:pointer;"><path d=" M  288.95,  596.69  L  288.95,  554.19 " style="stroke:#00A0C6;stroke-width: 5.10 ;&st6;" /></a><a ewd:lineID="24" style="cursor:pointer;"><path d=" M  314.45,  596.69  L  314.45,  554.19 " style="stroke:#F668B2;stroke-width: 5.10 ;&st6;" /></a><a ewd:lineID="25" style="cursor:pointer;"><path d=" M  331.44,  443.14  L  331.44,  401.22 " style="stroke:#56077D;stroke-width: 5.10 ;&st6;" /></a><a ewd:lineID="26" style="cursor:pointer;"><path d=" M  339.94,  596.69  L  339.94,  554.19 " style="stroke:#000000;stroke-width: 5.10 ;&st6;" /></a><a ewd:lineID="27" style="cursor:pointer;"><path d=" M  365.44,  596.69  L  365.44,  554.19 " style="stroke:#000000;stroke-width: 5.10 ;&st6;" /><path d=" M  365.44,  596.69  L  365.44,  554.19 " style="stroke:#FFFFFF;stroke-width: 4.53 ;&st6;" /></a><a ewd:lineID="28" style="cursor:pointer;"><path d=" M  390.93,  452.21  L  390.93,  596.69 " style="stroke:#FFE600;stroke-width: 5.10 ;&st6;" /></a><a ewd:lineID="29" style="cursor:pointer;"><path d=" M  390.93,  437.48  L  390.93,  401.22 " style="stroke:#999999;stroke-width: 5.10 ;&st6;" /></a><a ewd:lineID="30" style="cursor:pointer;"><path d=" M  390.93,  188.75  L  390.93,  143.99 " style="stroke:#7FC97F;stroke-width: 5.10 ;&st6;" /></a><a ewd:lineID="31" style="cursor:pointer;"><path d=" M  390.93,  129.26  L  390.93,  103.77 " style="stroke:#008837;stroke-width: 5.10 ;&st6;" /></a><a ewd:lineID="32" style="cursor:pointer;"><path d=" M  458.92,  681.67  L  458.92,  537.20 " style="stroke:#000000;stroke-width: 5.10 ;&st6;" /><path d=" M  458.92,  681.67  L  458.92,  537.20 " style="stroke:#FFFFFF;stroke-width: 4.53 ;&st6;" /><path d=" M  458.92,  681.67  L  458.92,  537.20 " style="stroke:#000000;stroke-width: 1.13 ;&st6;" /></a><a ewd:lineID="33" style="cursor:pointer;"><path d=" M  458.92,  520.20  L  458.92,  401.22 " style="stroke:#000000;stroke-width: 5.10 ;&st6;" /><path d=" M  458.92,  520.20  L  458.92,  401.22 " style="stroke:#FFFFFF;stroke-width: 4.53 ;&st6;" /><path d=" M  458.92,  520.20  L  458.92,  401.22 " style="stroke:#000000;stroke-width: 1.13 ;&st6;" /></a><a ewd:lineID="34" style="cursor:pointer;"><path d=" M  458.92,  188.75  L  458.92,  143.99 " style="stroke:#F668B2;stroke-width: 5.10 ;&st6;" /></a><a ewd:lineID="35" style="cursor:pointer;"><path d=" M  458.92,  129.26  L  458.92,  103.77 " style="stroke:#C3AF96;stroke-width: 5.10 ;&st6;" /></a><a ewd:lineID="36" style="cursor:pointer;"><path d=" M  484.42,  681.67  L  484.42,  537.20 " style="stroke:#000000;stroke-width: 5.10 ;&st6;" /><path d=" M  484.42,  681.67  L  484.42,  537.20 " style="stroke:#FFFFFF;stroke-width: 4.53 ;&st6;" /><path d=" M  484.42,  681.67  L  484.42,  537.20 " style="stroke:#000000;stroke-width: 1.13 ;&st6;" /></a><a ewd:code="OH2" ewd:figID="17" ewd:figtype="w2w" ewd:pinNo="13" style="cursor:pointer;"><path d=" M  101.98,  333.23  L   84.99,  333.23  L   84.99,  341.73  L  101.98,  341.73  L  101.98,  333.23 " style="&st2;" /><text style="&st8;" transform="matrix(&st16;  85.9  339.97 )"><tspan style="&st18;" x="0" y="0">OH2</tspan></text></a><a ewd:code="OH2" ewd:figID="18" ewd:figtype="w2w" ewd:pinNo="12" style="cursor:pointer;"><path d=" M   67.99,  333.23  L   50.99,  333.23  L   50.99,  341.73  L   67.99,  341.73  L   67.99,  333.23 " style="&st2;" /><text style="&st8;" transform="matrix(&st16;  51.91  339.97 )"><tspan style="&st18;" x="0" y="0">OH2</tspan></text></a><a ewd:code="AH9" ewd:figID="19" ewd:figtype="w2w" ewd:pinNo="15" style="cursor:pointer;"><path d=" M  467.42,  129.26  L  450.42,  129.26  L  450.42,  137.76  L  467.42,  137.76  L  467.42,  129.26 " style="&st2;" /><text style="&st8;" transform="matrix(&st16;  451.78  136.01 )"><tspan style="&st18;" x="0" y="0">AH9</tspan></text></a><a ewd:code="AH9" ewd:figID="20" ewd:figtype="w2w" ewd:pinNo="9" style="cursor:pointer;"><path d=" M  399.43,  129.26  L  382.44,  129.26  L  382.44,  137.76  L  399.43,  137.76  L  399.43,  129.26 " style="&st2;" /><text style="&st8;" transform="matrix(&st16;  383.8  136.01 )"><tspan style="&st18;" x="0" y="0">AH9</tspan></text></a><a ewd:code="AH10" ewd:figID="21" ewd:figtype="w2w" ewd:pinNo="19" style="cursor:pointer;"><path d=" M  399.43,  443.71  L  382.44,  443.71  L  382.44,  452.21  L  399.43,  452.21  L  399.43,  443.71 " style="&st2;" /><text style="&st8;" transform="matrix(&st16;  382.12  450.45 )"><tspan style="&st18;" x="0" y="0">AH10</tspan></text></a><a ewd:code="OH2" ewd:figID="22" ewd:figtype="w2w" ewd:pinNo="14" style="cursor:pointer;"><path d=" M   33.99,  333.23  L   17.00,  333.23  L   17.00,  341.73  L   33.99,  341.73  L   33.99,  333.23 " style="&st2;" /><text style="&st8;" transform="matrix(&st16;  17.91  339.97 )"><tspan style="&st18;" x="0" y="0">OH2</tspan></text></a><a ewd:code="H2" ewd:figID="23" ewd:figtype="gp" style="cursor:pointer;"><path d=" M  473.80,  681.67  L  495.04,  681.67  L  484.42,  697.25  L  473.80,  681.67 " style="&st2;" /><text style="&st8;" transform="matrix(&st16;  479.73  689.83 )"><tspan style="&st18;" x="0" y="0">H2</tspan></text></a><a ewd:code="H1" ewd:figID="24" ewd:figtype="gp" style="cursor:pointer;"><path d=" M  448.30,  681.67  L  469.55,  681.67  L  458.92,  697.25  L  448.30,  681.67 " style="&st2;" /><text style="&st8;" transform="matrix(&st16;  454.65  689.83 )"><tspan style="&st18;" x="0" y="0">H1</tspan></text></a><a ewd:code="4945" ewd:figID="25" ewd:figtype="sp" style="cursor:pointer;"><path d=" M  131.73,  435.21  L  140.23,  435.21  L  144.48,  439.46  L  144.48,  447.96  L  140.23,  452.21  L  131.73,  452.21  L  127.48,  447.96  L  127.48,  439.46  L  131.73,  435.21 " style="&st2;" /></a></g></svg>