﻿<?xml version="1.0"?>
<!-- Generator: Adobe Illustrator 10.0, SVG Export Plug-In . SVG Version: 3.0.0 Build 77)  -->
<!DOCTYPE svg PUBLIC "-//W3C//DTD SVG 1.0//EN" "http://www.w3.org/TR/2001/REC-SVG-20010904/DTD/svg10.dtd"[
	<!ENTITY ns_flows "http://ns.adobe.com/Flows/1.0/">
	<!ENTITY ns_svg "http://www.w3.org/2000/svg">
	<!ENTITY ns_xlink "http://www.w3.org/1999/xlink">
	<!ENTITY st0 "fill:none;stroke:#000000;stroke-linecap:round;stroke-linejoin:round;">
	<!ENTITY st1 "fill:none;stroke:#000000;stroke-width:0.6;stroke-linecap:round;stroke-linejoin:round;">
	<!ENTITY st2 "font-size:6px;">
	<!ENTITY st3 "font-family:'Arial';">
	<!ATTLIST svg
		ewd:ver CDATA #IMPLIED
		xmlns:ewd CDATA #FIXED "http://shcl.co.jp/ewd"
		xmlns:a CDATA #FIXED "http://ns.adobe.com/AdobeSVGViewerExtensions/3.0/">
	<!ATTLIST g
		ewd:pinNo CDATA #IMPLIED>
]>
<svg width="116.694" height="70.632" viewBox="0 0 116.694 70.632" style="overflow:visible;enable-background:new 0 0 116.694 70.632" xml:space="preserve" onload="call_execInitLoadProc_svg('connector')" ewd:ver="L2.1.2.8" xmlns="&ns_svg;" xmlns:ewd="http://shcl.co.jp/ewd" xmlns:a="http://ns.adobe.com/AdobeSVGViewerExtensions/3.0/" xmlns:xlink="&ns_xlink;">
<script type="text/javascript" xlink:href="../../../../../system/js/ewd/fig/svgfig.js"/>
<g id="レイヤー_1">
	<path style="&st1;" d="M28.829,9.339c-11.734,0-21.247,9.513-21.247,21.246"/>
	<path style="&st1;" d="M87.865,65.883c11.734,0,21.247-9.513,21.247-21.247"/>
	<path style="&st1;" d="M109.112,30.585c0-11.733-9.513-21.246-21.247-21.246"/>
	<path style="&st1;" d="M14.664,44.636c0,7.823,6.342,14.165,14.165,14.165"/>
	<path style="&st0;" d="M113.203,27.752C111.749,14.751,100.948,5.09,87.865,5.09"/>
	<path style="&st1;" d="M75.939,2.642c0-1.183-0.959-2.142-2.142-2.142"/>
	<path style="&st1;" d="M42.896,4.75c-1.183,0-2.142,0.959-2.142,2.142"/>
	<path style="&st1;" d="M72.879,6.891c0-1.183-0.959-2.142-2.142-2.142"/>
	<path style="&st1;" d="M39.837,0.5c-1.183,0-2.142,0.959-2.142,2.142"/>
	<path style="&st0;" d="M84.353,2.03c0-0.845-0.685-1.53-1.53-1.53"/>
	<path style="&st0;" d="M30.812,0.5c-0.845,0-1.53,0.685-1.53,1.53"/>
	<path style="&st1;" d="M87.865,58.801c7.823,0,14.165-6.342,14.165-14.165"/>
	<path style="&st1;" d="M28.829,16.421c-7.823,0-14.165,6.342-14.165,14.164"/>
	<path style="&st1;" d="M7.582,44.636c0,11.734,9.513,21.247,21.247,21.247"/>
	<path style="&st0;" d="M87.865,70.132c13.083,0,23.884-9.661,25.338-22.663"/>
	<path style="&st0;" d="M3.491,47.469C4.945,60.47,15.746,70.131,28.829,70.131"/>
	<path style="&st0;" d="M29.282,5.092C16.042,4.857,4.961,14.591,3.49,27.752"/>
	<path style="&st1;" d="M102.03,30.585c0-7.822-6.342-14.164-14.165-14.164"/>
	<path style="&st1;" d="M102.03,30.585v14.051"/>
	<path style="&st1;" d="M14.664,30.585v14.051"/>
	<path style="&st1;" d="M37.695,5.089V2.642"/>
	<path style="&st1;" d="M80.302,51.537v-9.915"/>
	<path style="&st1;" d="M53.39,41.622v9.915h9.915v-9.915H53.39"/>
	<path style="&st1;" d="M28.829,16.421h59.037"/>
	<path style="&st1;" d="M28.829,65.883h59.037"/>
	<path style="&st1;" d="M28.829,58.801h59.037"/>
	<path style="&st1;" d="M113.361,30.585v14.051"/>
	<path style="&st1;" d="M67.525,16.421V4.75"/>
	<path style="&st0;" d="M3.491,27.752H0.5v19.716h2.991"/>
	<path style="&st1;" d="M28.829,9.339h11.926"/>
	<path style="&st1;" d="M75.939,5.089h8.414"/>
	<path style="&st1;" d="M46.109,10.257h21.417"/>
	<path style="&st1;" d="M36.392,51.537v-9.915"/>
	<path style="&st1;" d="M109.112,30.585v14.051"/>
	<path style="&st0;" d="M113.203,27.752h2.991v19.716h-2.991"/>
	<path style="&st0;" d="M29.282,2.03v3.06"/>
	<path style="&st1;" d="M46.109,16.421V4.75"/>
	<path style="&st1;" d="M29.282,5.089h8.414"/>
	<path style="&st1;" d="M42.896,4.75h27.841"/>
	<path style="&st1;" d="M75.939,5.089V2.642"/>
	<path style="&st0;" d="M84.353,5.089h3.513"/>
	<path style="&st0;" d="M30.812,0.5h52.011"/>
	<path style="&st1;" d="M40.755,9.339V6.891"/>
	<path style="&st1;" d="M72.879,9.339h14.986"/>
	<path style="&st1;" d="M46.109,7.044h21.417"/>
	<path style="&st1;" d="M72.879,9.339V6.891"/>
	<path style="&st0;" d="M84.353,2.03v3.06"/>
	<path style="&st1;" d="M40.755,9.339h5.354"/>
	<path style="&st1;" d="M43.432,9.339v7.082"/>
	<path style="&st1;" d="M70.203,9.339v7.082"/>
	<path style="&st1;" d="M72.879,9.339h-5.354"/>
	<path style="&st1;" d="M34.933,9.339v4.589"/>
	<path style="&st1;" d="M78.701,9.339v4.589"/>
	<path style="&st1;" d="M78.701,13.928h-5.666v2.493"/>
	<path style="&st1;" d="M109.112,30.585h4.249v14.051h-4.249"/>
	<path style="&st1;" d="M73.928,27.458v9.915h19.83v-9.915H73.928"/>
	<path style="&st1;" d="M83.843,37.373v-9.915"/>
	<path style="&st1;" d="M58.347,38.789V26.041"/>
	<path style="&st1;" d="M45.599,26.041v12.748h25.496V26.041H45.599"/>
	<path style="&st1;" d="M7.582,30.585v14.051"/>
	<path style="&st1;" d="M26.477,41.622v9.915h19.83v-9.915H26.477"/>
	<path style="&st1;" d="M7.582,30.585h-4.25v14.051h4.25"/>
	<path style="&st0;" d="M28.829,70.132h59.037"/>
	<path style="&st1;" d="M70.387,41.622v9.915h19.83v-9.915H70.387"/>
	<path style="&st1;" d="M40.599,16.421v-2.493h-5.666"/>
	<g ewd:pinNo="8">
		<text transform="matrix(1 0 0 1 73.7578 48.6167)"><tspan x="0" y="0" style="&st3; &st2;">8</tspan></text>
	</g>
	<g ewd:pinNo="7">
		<text transform="matrix(1 0 0 1 56.7607 48.6167)"><tspan x="0" y="0" style="&st3; &st2;">7</tspan></text>
	</g>
	<g ewd:pinNo="9">
		<text transform="matrix(1 0 0 1 83.6729 48.6167)"><tspan x="0" y="0" style="&st3; &st2;">9</tspan></text>
	</g>
	<g ewd:pinNo="2">
		<text transform="matrix(1 0 0 1 63.1348 34.4521)"><tspan x="0" y="0" style="&st3; &st2;">2</tspan></text>
	</g>
	<g ewd:pinNo="1">
		<text transform="matrix(1 0 0 1 50.3867 34.4521)"><tspan x="0" y="0" style="&st3; &st2;">1</tspan></text>
	</g>
	<g ewd:pinNo="3">
		<text transform="matrix(1 0 0 1 77.2988 34.4521)"><tspan x="0" y="0" style="&st3; &st2;">3</tspan></text>
	</g>
	<g ewd:pinNo="4">
		<text transform="matrix(1 0 0 1 87.2139 34.4521)"><tspan x="0" y="0" style="&st3; &st2;">4</tspan></text>
	</g>
	<g ewd:pinNo="6">
		<text transform="matrix(1 0 0 1 39.7637 48.6167)"><tspan x="0" y="0" style="&st3; &st2;">6</tspan></text>
	</g>
	<g ewd:pinNo="5">
		<text transform="matrix(1 0 0 1 29.8486 48.6167)"><tspan x="0" y="0" style="&st3; &st2;">5</tspan></text>
	</g>
</g>
</svg>