﻿<?xml version="1.0"?>
<!-- Generator: Adobe Illustrator 10.0, SVG Export Plug-In . SVG Version: 3.0.0 Build 77)  -->
<!DOCTYPE svg PUBLIC "-//W3C//DTD SVG 1.0//EN" "http://www.w3.org/TR/2001/REC-SVG-20010904/DTD/svg10.dtd"[
	<!ENTITY ns_flows "http://ns.adobe.com/Flows/1.0/">
	<!ENTITY ns_svg "http://www.w3.org/2000/svg">
	<!ENTITY ns_xlink "http://www.w3.org/1999/xlink">
	<!ENTITY st0 "fill:none;stroke:#000000;stroke-linecap:round;stroke-linejoin:round;">
	<!ENTITY st1 "fill:none;stroke:#000000;stroke-width:0.6;stroke-linecap:round;stroke-linejoin:round;">
	<!ENTITY st2 "font-size:6px;">
	<!ENTITY st3 "font-family:'Arial';">
	<!ATTLIST svg
		ewd:ver CDATA #IMPLIED
		xmlns:ewd CDATA #FIXED "http://shcl.co.jp/ewd"
		xmlns:a CDATA #FIXED "http://ns.adobe.com/AdobeSVGViewerExtensions/3.0/">
	<!ATTLIST g
		ewd:pinNo CDATA #IMPLIED>
]>
<svg width="182.303" height="84.57" viewBox="0 0 182.303 84.57" style="overflow:visible;enable-background:new 0 0 182.303 84.57" xml:space="preserve" onload="call_execInitLoadProc_svg('connector')" ewd:ver="L2.1.2.8" xmlns="&ns_svg;" xmlns:ewd="http://shcl.co.jp/ewd" xmlns:a="http://ns.adobe.com/AdobeSVGViewerExtensions/3.0/" xmlns:xlink="&ns_xlink;">
<script type="text/javascript" xlink:href="../../../../../system/js/ewd/fig/svgfig.js"/>
<g id="レイヤー_1">
	<path style="&st0;" d="M177.222,79.852c2.694-0.526,4.581-2.816,4.581-5.561"/>
	<path style="&st0;" d="M64.239,3.333c0-1.564-1.269-2.833-2.833-2.833"/>
	<path style="&st0;" d="M3.333,11.832c-1.564,0-2.833,1.269-2.833,2.833"/>
	<path style="&st0;" d="M0.5,74.291c0,2.745,1.886,5.035,4.581,5.561"/>
	<path style="&st0;" d="M120.896,0.5c-1.564,0-2.833,1.269-2.833,2.833"/>
	<path style="&st0;" d="M181.803,14.665c0-1.564-1.268-2.833-2.833-2.833"/>
	<path style="&st0;" d="M126.562,1.917c0-0.782-0.634-1.417-1.417-1.417"/>
	<path style="&st0;" d="M127.979,0.5c-0.782,0-1.417,0.634-1.417,1.417"/>
	<path style="&st0;" d="M133.132,0.814c-0.63-0.219-1.195-0.314-1.861-0.314"/>
	<path style="&st0;" d="M57.157,0.5c-0.782,0-1.417,0.634-1.417,1.417"/>
	<path style="&st0;" d="M55.741,1.917c0-0.782-0.634-1.417-1.417-1.417"/>
	<path style="&st0;" d="M51.033,0.5c-0.667,0-1.231,0.096-1.861,0.314"/>
	<path style="&st0;" d="M5.081,79.852l21.624,4.218"/>
	<path style="&st1;" d="M91.151,10.416h-5.666v7.082"/>
	<path style="&st1;" d="M67.072,8.999h24.079"/>
	<path style="&st0;" d="M79.82,3.333L67.072,6.166v11.332h2.833v8.498h-5.666"/>
	<path style="&st0;" d="M91.151,3.333H79.82"/>
	<path style="&st1;" d="M61.406,41.01v12.748h59.49V41.01H61.406"/>
	<path style="&st1;" d="M71.321,53.758V41.01"/>
	<path style="&st1;" d="M81.236,53.758V41.01"/>
	<path style="&st1;" d="M91.151,53.758V41.01"/>
	<path style="&st1;" d="M101.066,53.758V41.01"/>
	<path style="&st1;" d="M110.981,53.758V41.01"/>
	<path style="&st1;" d="M55.741,24.013V1.917"/>
	<path style="&st1;" d="M86.194,60.132v11.19"/>
	<path style="&st0;" d="M64.239,25.996V3.333"/>
	<path style="&st0;" d="M57.157,0.5h4.249"/>
	<path style="&st0;" d="M155.599,84.07H91.151"/>
	<path style="&st0;" d="M17.497,11.832L49.171,0.814"/>
	<path style="&st0;" d="M3.333,11.832h14.165"/>
	<path style="&st1;" d="M86.194,60.132h9.915"/>
	<path style="&st1;" d="M6.166,71.322v5.666h80.028v-5.666"/>
	<path style="&st1;" d="M61.406,53.758H11.832v12.748h69.405V53.758"/>
	<path style="&st0;" d="M26.704,84.07h64.447"/>
	<path style="&st1;" d="M86.194,71.322h9.915"/>
	<path style="&st1;" d="M71.321,66.506V53.758"/>
	<path style="&st1;" d="M61.406,66.506V53.758"/>
	<path style="&st1;" d="M51.491,66.506V53.758"/>
	<path style="&st1;" d="M41.577,66.506V53.758"/>
	<path style="&st1;" d="M31.662,66.506V53.758"/>
	<path style="&st1;" d="M21.747,66.506V53.758"/>
	<path style="&st1;" d="M120.896,53.758h49.575v12.748h-69.405V53.758"/>
	<path style="&st1;" d="M110.981,66.506V53.758"/>
	<path style="&st1;" d="M120.896,66.506V53.758"/>
	<path style="&st1;" d="M130.812,66.506V53.758"/>
	<path style="&st1;" d="M140.727,66.506V53.758"/>
	<path style="&st1;" d="M150.642,66.506V53.758"/>
	<path style="&st1;" d="M160.557,66.506V53.758"/>
	<path style="&st0;" d="M177.222,79.852l-21.623,4.218"/>
	<path style="&st1;" d="M91.151,10.416h5.666v7.082"/>
	<path style="&st1;" d="M61.406,41.01V29.679H6.166v19.83h55.241"/>
	<path style="&st0;" d="M0.5,74.291V14.665"/>
	<path style="&st1;" d="M115.231,8.999h-24.08"/>
	<path style="&st0;" d="M102.483,3.333l12.748,2.833v11.332h-2.833v8.498h5.666"/>
	<path style="&st1;" d="M42.993,49.509v-19.83"/>
	<path style="&st0;" d="M91.151,3.333h11.332"/>
	<path style="&st1;" d="M24.579,49.509v-19.83"/>
	<path style="&st1;" d="M120.896,41.01V29.679h55.241v19.83h-55.241"/>
	<path style="&st1;" d="M139.31,49.509v-19.83"/>
	<path style="&st1;" d="M157.724,49.509v-19.83"/>
	<path style="&st1;" d="M126.562,24.013V1.917"/>
	<path style="&st1;" d="M96.109,60.132v11.19"/>
	<path style="&st0;" d="M118.063,25.996V3.333"/>
	<path style="&st1;" d="M64.239,35.344v2.833h24.08v-2.833H64.239"/>
	<path style="&st0;" d="M125.146,0.5h-4.249"/>
	<path style="&st1;" d="M118.063,35.344v2.833H93.984v-2.833H118.063"/>
	<path style="&st1;" d="M69.905,17.498h21.247"/>
	<path style="&st1;" d="M69.905,17.498v-3.542h7.791v3.542"/>
	<path style="&st1;" d="M77.695,15.727h7.791"/>
	<path style="&st1;" d="M0.5,71.322h85.694"/>
	<path style="&st0;" d="M164.806,11.832L133.132,0.814"/>
	<path style="&st0;" d="M178.97,11.832h-14.165"/>
	<path style="&st1;" d="M176.137,71.322v5.666H96.109v-5.666"/>
	<path style="&st1;" d="M177.837,25.996h-55.524"/>
	<path style="&st0;" d="M181.803,74.291V14.665"/>
	<path style="&st1;" d="M112.398,17.498H91.151"/>
	<path style="&st1;" d="M112.398,17.498v-3.542h-7.791v3.542"/>
	<path style="&st1;" d="M104.607,15.727h-7.791"/>
	<path style="&st1;" d="M181.803,71.322H96.109"/>
	<path style="&st1;" d="M174.721,71.322v-1.983"/>
	<path style="&st1;" d="M97.525,69.339h77.195"/>
	<path style="&st1;" d="M91.151,58.149h6.374v11.19"/>
	<path style="&st1;" d="M179.82,63.673h1.983"/>
	<path style="&st1;" d="M179.82,15.515h-1.983l-1.983,1.983v6.515"/>
	<path style="&st1;" d="M179.82,15.515l1.983,1.983"/>
	<path style="&st1;" d="M175.854,24.013h-53.541"/>
	<path style="&st1;" d="M177.837,15.515v10.481"/>
	<path style="&st1;" d="M175.854,24.013l1.983,1.983"/>
	<path style="&st1;" d="M179.82,63.673V15.515"/>
	<path style="&st1;" d="M174.721,69.339l5.099-5.666"/>
	<path style="&st1;" d="M120.046,25.996l2.267-1.983"/>
	<path style="&st1;" d="M118.063,25.996h1.983"/>
	<path style="&st1;" d="M110.415,27.979h11.898v-1.983"/>
	<path style="&st0;" d="M127.979,0.5h3.292"/>
	<path style="&st1;" d="M91.151,19.48h19.264v8.499"/>
	<path style="&st1;" d="M4.466,25.996H59.99"/>
	<path style="&st1;" d="M71.888,27.979H59.99v-1.983"/>
	<path style="&st1;" d="M2.483,63.673V15.515"/>
	<path style="&st1;" d="M7.582,71.322v-1.983"/>
	<path style="&st1;" d="M2.483,63.673H0.5"/>
	<path style="&st1;" d="M7.582,69.339l-5.099-5.666"/>
	<path style="&st1;" d="M84.777,69.339H7.582"/>
	<path style="&st1;" d="M91.151,58.149h-6.374v11.19"/>
	<path style="&st1;" d="M91.151,19.48H71.888v8.499"/>
	<path style="&st1;" d="M4.466,15.515v10.481"/>
	<path style="&st1;" d="M6.449,24.013l-1.983,1.983"/>
	<path style="&st1;" d="M62.256,25.996l-2.266-1.983"/>
	<path style="&st1;" d="M64.239,25.996h-1.983"/>
	<path style="&st1;" d="M2.483,15.515h1.983l1.983,1.983v6.515"/>
	<path style="&st1;" d="M6.449,24.013H59.99"/>
	<path style="&st0;" d="M51.033,0.5h3.292"/>
	<path style="&st1;" d="M0.5,17.498l1.983-1.983"/>
	<g ewd:pinNo="11">
		<text transform="matrix(1 0 0 1 145.1816 41.8267)"><tspan x="0" y="0" style="&st3; &st2;">11</tspan></text>
	</g>
	<g ewd:pinNo="10">
		<text transform="matrix(1 0 0 1 126.5454 41.8267)"><tspan x="0" y="0" style="&st3; &st2;">10</tspan></text>
	</g>
	<g ewd:pinNo="3">
		<text transform="matrix(1 0 0 1 50.5527 41.8267)"><tspan x="0" y="0" style="&st3; &st2;">3</tspan></text>
	</g>
	<g ewd:pinNo="2">
		<text transform="matrix(1 0 0 1 32.1392 41.8267)"><tspan x="0" y="0" style="&st3; &st2;">2</tspan></text>
	</g>
	<g ewd:pinNo="12">
		<text transform="matrix(1 0 0 1 163.3726 41.8267)"><tspan x="0" y="0" style="&st3; &st2;">12</tspan></text>
	</g>
	<g ewd:pinNo="1">
		<text transform="matrix(1 0 0 1 13.7256 41.8267)"><tspan x="0" y="0" style="&st3; &st2;">1</tspan></text>
	</g>
	<g ewd:pinNo="15">
		<text transform="matrix(1 0 0 1 33.061 62.3647)"><tspan x="0" y="0" style="&st3; &st2;">15</tspan></text>
	</g>
	<g ewd:pinNo="16">
		<text transform="matrix(1 0 0 1 42.9761 62.3647)"><tspan x="0" y="0" style="&st3; &st2;">16</tspan></text>
	</g>
	<g ewd:pinNo="14">
		<text transform="matrix(1 0 0 1 23.146 62.3647)"><tspan x="0" y="0" style="&st3; &st2;">14</tspan></text>
	</g>
	<g ewd:pinNo="13">
		<text transform="matrix(1 0 0 1 13.231 62.3647)"><tspan x="0" y="0" style="&st3; &st2;">13</tspan></text>
	</g>
	<g ewd:pinNo="17">
		<text transform="matrix(1 0 0 1 52.8911 62.3647)"><tspan x="0" y="0" style="&st3; &st2;">17</tspan></text>
	</g>
	<g ewd:pinNo="4">
		<text transform="matrix(1 0 0 1 64.7173 49.6172)"><tspan x="0" y="0" style="&st3; &st2;">4</tspan></text>
	</g>
	<g ewd:pinNo="5">
		<text transform="matrix(1 0 0 1 74.6323 49.6172)"><tspan x="0" y="0" style="&st3; &st2;">5</tspan></text>
	</g>
	<g ewd:pinNo="6">
		<text transform="matrix(1 0 0 1 84.5474 49.6172)"><tspan x="0" y="0" style="&st3; &st2;">6</tspan></text>
	</g>
	<g ewd:pinNo="7">
		<text transform="matrix(1 0 0 1 94.4624 49.6172)"><tspan x="0" y="0" style="&st3; &st2;">7</tspan></text>
	</g>
	<g ewd:pinNo="8">
		<text transform="matrix(1 0 0 1 104.3774 49.6172)"><tspan x="0" y="0" style="&st3; &st2;">8</tspan></text>
	</g>
	<g ewd:pinNo="9">
		<text transform="matrix(1 0 0 1 114.2925 49.6172)"><tspan x="0" y="0" style="&st3; &st2;">9</tspan></text>
	</g>
	<g ewd:pinNo="18">
		<text transform="matrix(1 0 0 1 62.8062 62.3647)"><tspan x="0" y="0" style="&st3; &st2;">18</tspan></text>
	</g>
	<g ewd:pinNo="19">
		<text transform="matrix(1 0 0 1 72.7212 62.3647)"><tspan x="0" y="0" style="&st3; &st2;">19</tspan></text>
	</g>
	<g ewd:pinNo="20">
		<text transform="matrix(1 0 0 1 102.6597 62.3647)"><tspan x="0" y="0" style="&st3; &st2;">20</tspan></text>
	</g>
	<g ewd:pinNo="21">
		<text transform="matrix(1 0 0 1 112.5747 62.3647)"><tspan x="0" y="0" style="&st3; &st2;">21</tspan></text>
	</g>
	<g ewd:pinNo="22">
		<text transform="matrix(1 0 0 1 122.4897 62.3647)"><tspan x="0" y="0" style="&st3; &st2;">22</tspan></text>
	</g>
	<g ewd:pinNo="23">
		<text transform="matrix(1 0 0 1 132.4048 62.3647)"><tspan x="0" y="0" style="&st3; &st2;">23</tspan></text>
	</g>
	<g ewd:pinNo="24">
		<text transform="matrix(1 0 0 1 142.3198 62.3647)"><tspan x="0" y="0" style="&st3; &st2;">24</tspan></text>
	</g>
	<g ewd:pinNo="25">
		<text transform="matrix(1 0 0 1 152.2349 62.3647)"><tspan x="0" y="0" style="&st3; &st2;">25</tspan></text>
	</g>
	<g ewd:pinNo="26">
		<text transform="matrix(1 0 0 1 162.1499 62.3647)"><tspan x="0" y="0" style="&st3; &st2;">26</tspan></text>
	</g>
</g>
</svg>